[gd_scene load_steps=7 format=2]

[ext_resource path="res://scripts/lamp.gd" type="Script" id=1]
[ext_resource path="res://models/lamp.obj" type="ArrayMesh" id=2]
[ext_resource path="res://materials/palette.material" type="Material" id=3]
[ext_resource path="res://materials/glow.material" type="Material" id=4]
[ext_resource path="res://nodes/o2_consummer.tscn" type="PackedScene" id=5]

[sub_resource type="QuadMesh" id=1]
size = Vector2( 5, 5 )

[node name="lamp" type="Spatial"]
script = ExtResource( 1 )

[node name="lamp" type="MeshInstance" parent="."]
transform = Transform( 1, 0, 0, 0, 1, 0, 0, 0, 1, 0, 0.222279, 0 )
mesh = ExtResource( 2 )
material/0 = ExtResource( 3 )

[node name="O2Consumer" parent="." instance=ExtResource( 5 )]

[node name="glow" type="MeshInstance" parent="."]
transform = Transform( 1, 0, 0, 0, 1, 0, 0, 0, 1, 0, 0.147211, 0 )
mesh = SubResource( 1 )
material/0 = ExtResource( 4 )
