[gd_scene load_steps=6 format=2]

[ext_resource path="res://scripts/lanternfish.gd" type="Script" id=1]
[ext_resource path="res://scripts/fishpath.gd" type="Script" id=2]
[ext_resource path="res://materials/palette.material" type="Material" id=3]
[ext_resource path="res://models/lanternfish.obj" type="ArrayMesh" id=4]

[sub_resource type="CapsuleShape" id=16]
radius = 1.823
height = 3.329

[node name="lanternfish" type="KinematicBody"]
script = ExtResource( 1 )
targets = PoolVector3Array( 0, 0, 0 )

[node name="lantern" type="Spatial" parent="."]
transform = Transform( 1, 0, 0, 0, 1, 0, 0, 0, 1, -3.74382, 5.51345, 0 )

[node name="shape" type="CollisionShape" parent="."]
transform = Transform( -4.37114e-08, 0, 1, 0, 1, 0, -1, 0, -4.37114e-08, 0.19455, 3.09126, 0 )
shape = SubResource( 16 )

[node name="mesh" type="MeshInstance" parent="."]
transform = Transform( 1, 0, 1.74846e-07, 0, 1, 0, -1.74846e-07, 0, 1, 0, 3, 0 )
mesh = ExtResource( 4 )
material/0 = ExtResource( 3 )

[node name="nav_agent" type="NavigationAgent" parent="."]
avoidance_enabled = true

[node name="geometry" type="ImmediateGeometry" parent="."]
transform = Transform( 1, 0, 0, 0, 1, 0, 0, 0, 1, 0, 3, 0 )
script = ExtResource( 2 )
