[gd_scene load_steps=9 format=2]

[ext_resource path="res://nodes/o2_consummer.tscn" type="PackedScene" id=1]
[ext_resource path="res://models/submarine.obj" type="ArrayMesh" id=2]
[ext_resource path="res://materials/palette.material" type="Material" id=3]
[ext_resource path="res://scripts/submarine.gd" type="Script" id=4]

[sub_resource type="SphereShape" id=1]

[sub_resource type="ShaderMaterial" id=2]

[sub_resource type="ArrayMesh" id=3]
surfaces/0 = {
"aabb": AABB( -1.38011, -1.26888, -1.60067, 2.88158, 2.3656, 3.20026 ),
"array_data": PoolByteArray( 54, 226, 228, 62, 205, 102, 113, 191, 138, 114, 174, 62, 9, 168, 126, 79, 165, 52, 45, 59, 144, 26, 136, 59, 121, 97, 140, 191, 119, 36, 205, 60, 9, 168, 126, 79, 162, 52, 48, 59, 249, 194, 37, 190, 212, 235, 113, 191, 228, 122, 8, 63, 9, 168, 126, 79, 159, 52, 45, 59, 54, 226, 228, 62, 205, 102, 113, 191, 138, 114, 174, 62, 54, 205, 112, 11, 171, 52, 45, 59, 225, 42, 76, 63, 173, 179, 1, 191, 78, 178, 14, 63, 54, 205, 112, 11, 168, 52, 42, 59, 226, 96, 109, 63, 232, 244, 21, 191, 204, 5, 188, 60, 54, 205, 112, 11, 174, 52, 42, 59, 249, 194, 37, 190, 212, 235, 113, 191, 228, 122, 8, 63, 232, 171, 53, 63, 214, 52, 45, 59, 144, 26, 136, 59, 121, 97, 140, 191, 119, 36, 205, 60, 232, 171, 53, 63, 211, 52, 48, 59, 121, 155, 14, 191, 177, 235, 113, 191, 17, 195, 48, 60, 232, 171, 53, 63, 208, 52, 45, 59, 121, 155, 14, 191, 177, 235, 113, 191, 17, 195, 48, 60, 216, 155, 203, 63, 202, 52, 45, 59, 144, 26, 136, 59, 121, 97, 140, 191, 119, 36, 205, 60, 216, 155, 203, 63, 199, 52, 48, 59, 150, 198, 58, 190, 212, 235, 113, 191, 232, 197, 6, 191, 216, 155, 203, 63, 196, 52, 45, 59, 150, 198, 58, 190, 212, 235, 113, 191, 232, 197, 6, 191, 37, 139, 130, 47, 190, 52, 45, 59, 144, 26, 136, 59, 121, 97, 140, 191, 119, 36, 205, 60, 37, 139, 130, 47, 187, 52, 48, 59, 187, 163, 227, 62, 83, 53, 113, 191, 47, 69, 176, 190, 37, 139, 130, 47, 184, 52, 45, 59, 226, 96, 109, 63, 232, 244, 21, 191, 204, 5, 188, 60, 76, 230, 112, 11, 174, 52, 42, 59, 225, 42, 76, 63, 173, 179, 1, 191, 78, 178, 14, 63, 76, 230, 112, 11, 168, 52, 42, 59, 140, 101, 133, 63, 96, 104, 206, 188, 2, 237, 174, 62, 76, 230, 112, 11, 171, 52, 40, 59, 64, 117, 139, 62, 85, 249, 15, 191, 204, 204, 102, 63, 2, 224, 110, 51, 162, 52, 42, 59, 186, 242, 144, 190, 28, 236, 245, 190, 181, 220, 113, 63, 2, 224, 110, 51, 156, 52, 42, 59, 188, 83, 61, 187, 146, 104, 206, 188, 171, 97, 140, 63, 2, 224, 110, 51, 159, 52, 40, 59, 26, 245, 69, 191, 50, 249, 15, 191, 212, 162, 9, 63, 183, 229, 33, 57, 211, 52, 42, 59, 189, 107, 124, 191, 144, 235, 245, 190, 218, 246, 185, 60, 183, 229, 33, 57, 205, 52, 42, 59, 14, 160, 133, 191, 127, 104, 206, 188, 184, 28, 172, 62, 183, 229, 33, 57, 208, 52, 40, 59, 123, 18, 64, 191, 52, 249, 15, 191, 128, 188, 17, 191, 155, 174, 195, 57, 199, 52, 42, 59, 81, 14, 167, 190, 33, 236, 245, 190, 66, 69, 110, 191, 155, 174, 195, 57, 193, 52, 42, 59, 29, 110, 36, 191, 187, 104, 206, 188, 171, 147, 99, 191, 155, 174, 195, 57, 196, 52, 40, 59, 190, 128, 158, 62, 86, 249, 15, 191, 181, 180, 99, 191, 101, 171, 142, 34, 187, 52, 42, 59, 29, 204, 72, 63, 29, 236, 245, 190, 188, 17, 25, 191, 101, 171, 142, 34, 180, 52, 42, 59, 134, 160, 37, 63, 96, 104, 206, 188, 13, 181, 98, 191, 101, 171, 142, 34, 184, 52, 40, 59, 140, 101, 133, 63, 96, 104, 206, 188, 2, 237, 174, 62, 67, 246, 126, 100, 171, 52, 40, 59, 225, 42, 76, 63, 173, 179, 1, 191, 78, 178, 14, 63, 67, 246, 126, 100, 168, 52, 42, 59, 72, 249, 41, 63, 23, 32, 184, 187, 181, 161, 95, 63, 67, 246, 126, 100, 165, 52, 40, 59, 188, 83, 61, 187, 146, 104, 206, 188, 171, 97, 140, 63, 228, 245, 94, 63, 159, 52, 40, 59, 186, 242, 144, 190, 28, 236, 245, 190, 181, 220, 113, 63, 228, 245, 94, 63, 156, 52, 42, 59, 114, 41, 32, 191, 200, 32, 184, 187, 171, 194, 102, 63, 228, 245, 94, 63, 153, 52, 40, 59, 14, 160, 133, 191, 127, 104, 206, 188, 184, 28, 172, 62, 144, 242, 0, 63, 208, 52, 40, 59, 189, 107, 124, 191, 144, 235, 245, 190, 218, 246, 185, 60, 144, 242, 0, 63, 205, 52, 42, 59, 201, 122, 134, 191, 136, 33, 184, 187, 150, 6, 162, 190, 144, 242, 0, 63, 202, 52, 40, 59, 29, 110, 36, 191, 187, 104, 206, 188, 171, 147, 99, 191, 142, 159, 162, 63, 196, 52, 40, 59, 81, 14, 167, 190, 33, 236, 245, 190, 66, 69, 110, 191, 142, 159, 162, 63, 193, 52, 42, 59, 197, 12, 194, 188, 164, 33, 184, 187, 54, 106, 140, 191, 142, 159, 162, 63, 190, 52, 40, 59, 134, 160, 37, 63, 96, 104, 206, 188, 13, 181, 98, 191, 116, 198, 130, 26, 184, 52, 40, 59, 29, 204, 72, 63, 29, 236, 245, 190, 188, 17, 25, 191, 116, 198, 130, 26, 180, 52, 42, 59, 18, 155, 132, 63, 119, 33, 184, 187, 66, 24, 185, 190, 116, 198, 130, 26, 177, 52, 40, 59, 22, 115, 60, 63, 255, 55, 23, 63, 176, 26, 15, 63, 30, 49, 115, 95, 168, 52, 37, 59, 169, 75, 159, 62, 183, 184, 2, 63, 140, 115, 107, 63, 30, 49, 115, 95, 162, 52, 37, 59, 71, 233, 71, 62, 132, 160, 108, 63, 48, 36, 15, 63, 30, 49, 115, 95, 165, 52, 35, 59, 65, 188, 155, 190, 34, 56, 23, 63, 122, 114, 95, 63, 222, 48, 70, 69, 156, 52, 37, 59, 176, 80, 71, 191, 181, 184, 2, 63, 255, 129, 20, 63, 222, 48, 70, 69, 150, 52, 37, 59, 66, 98, 241, 190, 131, 160, 108, 63, 119, 135, 183, 62, 222, 48, 70, 69, 153, 52, 35, 59, 216, 146, 108, 191, 255, 55, 23, 63, 239, 50, 160, 188, 181, 72, 234, 70, 205, 52, 37, 59, 44, 213, 74, 191, 181, 184, 2, 63, 147, 170, 15, 191, 181, 72, 234, 70, 199, 52, 37, 59, 248, 35, 249, 190, 131, 160, 108, 63, 88, 218, 172, 190, 181, 72, 234, 70, 202, 52, 35, 59, 195, 176, 136, 190, 35, 56, 23, 63, 143, 138, 98, 191, 69, 123, 153, 71, 193, 52, 37, 59, 147, 233, 147, 62, 183, 184, 2, 63, 247, 76, 109, 191, 69, 123, 153, 71, 187, 52, 37, 59, 64, 207, 46, 62, 132, 160, 108, 63, 43, 46, 17, 191, 69, 123, 153, 71, 190, 52, 35, 59, 181, 85, 66, 63, 251, 55, 23, 63, 5, 1, 7, 191, 72, 68, 143, 110, 180, 52, 37, 59, 53, 132, 120, 63, 43, 183, 2, 63, 200, 1, 75, 188, 72, 68, 143, 110, 174, 52, 37, 59, 185, 100, 23, 63, 173, 145, 108, 63, 102, 222, 140, 188, 72, 68, 143, 110, 177, 52, 35, 59, 64, 207, 46, 62, 132, 160, 108, 63, 43, 46, 17, 191, 40, 101, 130, 100, 184, 52, 35, 59, 185, 100, 23, 63, 173, 145, 108, 63, 102, 222, 140, 188, 40, 101, 130, 100, 177, 52, 35, 59, 132, 27, 148, 60, 121, 97, 140, 63, 207, 246, 145, 188, 40, 101, 130, 100, 180, 52, 32, 59, 181, 85, 66, 63, 251, 55, 23, 63, 5, 1, 7, 191, 65, 89, 130, 100, 180, 52, 37, 59, 185, 100, 23, 63, 173, 145, 108, 63, 102, 222, 140, 188, 65, 89, 130, 100, 177, 52, 35, 59, 64, 207, 46, 62, 132, 160, 108, 63, 43, 46, 17, 191, 65, 89, 130, 100, 184, 52, 35, 59, 147, 233, 147, 62, 183, 184, 2, 63, 247, 76, 109, 191, 77, 96, 141, 30, 187, 52, 37, 59, 181, 85, 66, 63, 251, 55, 23, 63, 5, 1, 7, 191, 77, 96, 141, 30, 180, 52, 37, 59, 64, 207, 46, 62, 132, 160, 108, 63, 43, 46, 17, 191, 77, 96, 141, 30, 184, 52, 35, 59, 248, 35, 249, 190, 131, 160, 108, 63, 88, 218, 172, 190, 219, 117, 162, 63, 196, 52, 35, 59, 64, 207, 46, 62, 132, 160, 108, 63, 43, 46, 17, 191, 219, 117, 162, 63, 190, 52, 35, 59, 132, 27, 148, 60, 121, 97, 140, 63, 207, 246, 145, 188, 219, 117, 162, 63, 193, 52, 32, 59, 195, 176, 136, 190, 35, 56, 23, 63, 143, 138, 98, 191, 194, 111, 162, 63, 193, 52, 37, 59, 64, 207, 46, 62, 132, 160, 108, 63, 43, 46, 17, 191, 194, 111, 162, 63, 190, 52, 35, 59, 248, 35, 249, 190, 131, 160, 108, 63, 88, 218, 172, 190, 194, 111, 162, 63, 196, 52, 35, 59, 44, 213, 74, 191, 181, 184, 2, 63, 147, 170, 15, 191, 178, 92, 185, 57, 199, 52, 37, 59, 195, 176, 136, 190, 35, 56, 23, 63, 143, 138, 98, 191, 178, 92, 185, 57, 193, 52, 37, 59, 248, 35, 249, 190, 131, 160, 108, 63, 88, 218, 172, 190, 178, 92, 185, 57, 196, 52, 35, 59, 66, 98, 241, 190, 131, 160, 108, 63, 119, 135, 183, 62, 224, 92, 0, 63, 208, 52, 35, 59, 248, 35, 249, 190, 131, 160, 108, 63, 88, 218, 172, 190, 224, 92, 0, 63, 202, 52, 35, 59, 132, 27, 148, 60, 121, 97, 140, 63, 207, 246, 145, 188, 224, 92, 0, 63, 205, 52, 32, 59, 216, 146, 108, 191, 255, 55, 23, 63, 239, 50, 160, 188, 201, 71, 0, 63, 205, 52, 37, 59, 248, 35, 249, 190, 131, 160, 108, 63, 88, 218, 172, 190, 201, 71, 0, 63, 202, 52, 35, 59, 66, 98, 241, 190, 131, 160, 108, 63, 119, 135, 183, 62, 201, 71, 0, 63, 208, 52, 35, 59, 176, 80, 71, 191, 181, 184, 2, 63, 255, 129, 20, 63, 202, 51, 21, 56, 211, 52, 37, 59, 216, 146, 108, 191, 255, 55, 23, 63, 239, 50, 160, 188, 202, 51, 21, 56, 205, 52, 37, 59, 66, 98, 241, 190, 131, 160, 108, 63, 119, 135, 183, 62, 202, 51, 21, 56, 208, 52, 35, 59, 71, 233, 71, 62, 132, 160, 108, 63, 48, 36, 15, 63, 247, 88, 94, 63, 159, 52, 35, 59, 66, 98, 241, 190, 131, 160, 108, 63, 119, 135, 183, 62, 247, 88, 94, 63, 153, 52, 35, 59, 132, 27, 148, 60, 121, 97, 140, 63, 207, 246, 145, 188, 247, 88, 94, 63, 156, 52, 32, 59, 65, 188, 155, 190, 34, 56, 23, 63, 122, 114, 95, 63, 242, 63, 94, 63, 156, 52, 37, 59, 66, 98, 241, 190, 131, 160, 108, 63, 119, 135, 183, 62, 242, 63, 94, 63, 153, 52, 35, 59, 71, 233, 71, 62, 132, 160, 108, 63, 48, 36, 15, 63, 242, 63, 94, 63, 159, 52, 35, 59, 169, 75, 159, 62, 183, 184, 2, 63, 140, 115, 107, 63, 3, 57, 102, 55, 162, 52, 37, 59, 65, 188, 155, 190, 34, 56, 23, 63, 122, 114, 95, 63, 3, 57, 102, 55, 156, 52, 37, 59, 71, 233, 71, 62, 132, 160, 108, 63, 48, 36, 15, 63, 3, 57, 102, 55, 159, 52, 35, 59, 185, 100, 23, 63, 173, 145, 108, 63, 102, 222, 140, 188, 24, 85, 126, 26, 171, 52, 35, 59, 71, 233, 71, 62, 132, 160, 108, 63, 48, 36, 15, 63, 24, 85, 126, 26, 165, 52, 35, 59, 132, 27, 148, 60, 121, 97, 140, 63, 207, 246, 145, 188, 24, 85, 126, 26, 168, 52, 32, 59, 22, 115, 60, 63, 255, 55, 23, 63, 176, 26, 15, 63, 36, 60, 126, 26, 168, 52, 37, 59, 71, 233, 71, 62, 132, 160, 108, 63, 48, 36, 15, 63, 36, 60, 126, 26, 165, 52, 35, 59, 185, 100, 23, 63, 173, 145, 108, 63, 102, 222, 140, 188, 36, 60, 126, 26, 171, 52, 35, 59, 53, 132, 120, 63, 43, 183, 2, 63, 200, 1, 75, 188, 58, 53, 113, 16, 174, 52, 37, 59, 22, 115, 60, 63, 255, 55, 23, 63, 176, 26, 15, 63, 58, 53, 113, 16, 168, 52, 37, 59, 185, 100, 23, 63, 173, 145, 108, 63, 102, 222, 140, 188, 58, 53, 113, 16, 171, 52, 35, 59, 181, 85, 66, 63, 251, 55, 23, 63, 5, 1, 7, 191, 99, 53, 143, 110, 180, 52, 37, 59, 18, 155, 132, 63, 119, 33, 184, 187, 66, 24, 185, 190, 99, 53, 143, 110, 177, 52, 40, 59, 53, 132, 120, 63, 43, 183, 2, 63, 200, 1, 75, 188, 99, 53, 143, 110, 174, 52, 37, 59, 134, 160, 37, 63, 96, 104, 206, 188, 13, 181, 98, 191, 111, 62, 130, 100, 184, 52, 40, 59, 18, 155, 132, 63, 119, 33, 184, 187, 66, 24, 185, 190, 111, 62, 130, 100, 177, 52, 40, 59, 181, 85, 66, 63, 251, 55, 23, 63, 5, 1, 7, 191, 111, 62, 130, 100, 180, 52, 37, 59, 147, 233, 147, 62, 183, 184, 2, 63, 247, 76, 109, 191, 101, 82, 141, 30, 187, 52, 37, 59, 134, 160, 37, 63, 96, 104, 206, 188, 13, 181, 98, 191, 101, 82, 141, 30, 184, 52, 40, 59, 181, 85, 66, 63, 251, 55, 23, 63, 5, 1, 7, 191, 101, 82, 141, 30, 180, 52, 37, 59, 195, 176, 136, 190, 35, 56, 23, 63, 143, 138, 98, 191, 162, 124, 153, 71, 193, 52, 37, 59, 197, 12, 194, 188, 164, 33, 184, 187, 54, 106, 140, 191, 162, 124, 153, 71, 190, 52, 40, 59, 147, 233, 147, 62, 183, 184, 2, 63, 247, 76, 109, 191, 162, 124, 153, 71, 187, 52, 37, 59, 29, 110, 36, 191, 187, 104, 206, 188, 171, 147, 99, 191, 147, 99, 162, 63, 196, 52, 40, 59, 197, 12, 194, 188, 164, 33, 184, 187, 54, 106, 140, 191, 147, 99, 162, 63, 190, 52, 40, 59, 195, 176, 136, 190, 35, 56, 23, 63, 143, 138, 98, 191, 147, 99, 162, 63, 193, 52, 37, 59, 44, 213, 74, 191, 181, 184, 2, 63, 147, 170, 15, 191, 155, 85, 185, 57, 199, 52, 37, 59, 29, 110, 36, 191, 187, 104, 206, 188, 171, 147, 99, 191, 155, 85, 185, 57, 196, 52, 40, 59, 195, 176, 136, 190, 35, 56, 23, 63, 143, 138, 98, 191, 155, 85, 185, 57, 193, 52, 37, 59, 216, 146, 108, 191, 255, 55, 23, 63, 239, 50, 160, 188, 158, 50, 234, 70, 205, 52, 37, 59, 201, 122, 134, 191, 136, 33, 184, 187, 150, 6, 162, 190, 158, 50, 234, 70, 202, 52, 40, 59, 44, 213, 74, 191, 181, 184, 2, 63, 147, 170, 15, 191, 158, 50, 234, 70, 199, 52, 37, 59, 14, 160, 133, 191, 127, 104, 206, 188, 184, 28, 172, 62, 150, 20, 0, 63, 208, 52, 40, 59, 201, 122, 134, 191, 136, 33, 184, 187, 150, 6, 162, 190, 150, 20, 0, 63, 202, 52, 40, 59, 216, 146, 108, 191, 255, 55, 23, 63, 239, 50, 160, 188, 150, 20, 0, 63, 205, 52, 37, 59, 176, 80, 71, 191, 181, 184, 2, 63, 255, 129, 20, 63, 180, 26, 21, 56, 211, 52, 37, 59, 14, 160, 133, 191, 127, 104, 206, 188, 184, 28, 172, 62, 180, 26, 21, 56, 208, 52, 40, 59, 216, 146, 108, 191, 255, 55, 23, 63, 239, 50, 160, 188, 180, 26, 21, 56, 205, 52, 37, 59, 65, 188, 155, 190, 34, 56, 23, 63, 122, 114, 95, 63, 215, 25, 70, 69, 156, 52, 37, 59, 114, 41, 32, 191, 200, 32, 184, 187, 171, 194, 102, 63, 215, 25, 70, 69, 153, 52, 40, 59, 176, 80, 71, 191, 181, 184, 2, 63, 255, 129, 20, 63, 215, 25, 70, 69, 150, 52, 37, 59, 188, 83, 61, 187, 146, 104, 206, 188, 171, 97, 140, 63, 229, 16, 94, 63, 159, 52, 40, 59, 114, 41, 32, 191, 200, 32, 184, 187, 171, 194, 102, 63, 229, 16, 94, 63, 153, 52, 40, 59, 65, 188, 155, 190, 34, 56, 23, 63, 122, 114, 95, 63, 229, 16, 94, 63, 156, 52, 37, 59, 169, 75, 159, 62, 183, 184, 2, 63, 140, 115, 107, 63, 254, 32, 102, 55, 162, 52, 37, 59, 188, 83, 61, 187, 146, 104, 206, 188, 171, 97, 140, 63, 254, 32, 102, 55, 159, 52, 40, 59, 65, 188, 155, 190, 34, 56, 23, 63, 122, 114, 95, 63, 254, 32, 102, 55, 156, 52, 37, 59, 22, 115, 60, 63, 255, 55, 23, 63, 176, 26, 15, 63, 44, 25, 115, 95, 168, 52, 37, 59, 72, 249, 41, 63, 23, 32, 184, 187, 181, 161, 95, 63, 44, 25, 115, 95, 165, 52, 40, 59, 169, 75, 159, 62, 183, 184, 2, 63, 140, 115, 107, 63, 44, 25, 115, 95, 162, 52, 37, 59, 140, 101, 133, 63, 96, 104, 206, 188, 2, 237, 174, 62, 63, 14, 126, 26, 171, 52, 40, 59, 72, 249, 41, 63, 23, 32, 184, 187, 181, 161, 95, 63, 63, 14, 126, 26, 165, 52, 40, 59, 22, 115, 60, 63, 255, 55, 23, 63, 176, 26, 15, 63, 63, 14, 126, 26, 168, 52, 37, 59, 53, 132, 120, 63, 43, 183, 2, 63, 200, 1, 75, 188, 73, 27, 113, 16, 174, 52, 37, 59, 140, 101, 133, 63, 96, 104, 206, 188, 2, 237, 174, 62, 73, 27, 113, 16, 171, 52, 40, 59, 22, 115, 60, 63, 255, 55, 23, 63, 176, 26, 15, 63, 73, 27, 113, 16, 168, 52, 37, 59, 197, 12, 194, 188, 164, 33, 184, 187, 54, 106, 140, 191, 114, 97, 130, 79, 190, 52, 40, 59, 134, 160, 37, 63, 96, 104, 206, 188, 13, 181, 98, 191, 114, 97, 130, 79, 184, 52, 40, 59, 147, 233, 147, 62, 183, 184, 2, 63, 247, 76, 109, 191, 114, 97, 130, 79, 187, 52, 37, 59, 190, 128, 158, 62, 86, 249, 15, 191, 181, 180, 99, 191, 109, 157, 130, 79, 187, 52, 42, 59, 134, 160, 37, 63, 96, 104, 206, 188, 13, 181, 98, 191, 109, 157, 130, 79, 184, 52, 40, 59, 197, 12, 194, 188, 164, 33, 184, 187, 54, 106, 140, 191, 109, 157, 130, 79, 190, 52, 40, 59, 81, 14, 167, 190, 33, 236, 245, 190, 66, 69, 110, 191, 94, 132, 146, 74, 193, 52, 42, 59, 190, 128, 158, 62, 86, 249, 15, 191, 181, 180, 99, 191, 94, 132, 146, 74, 187, 52, 42, 59, 197, 12, 194, 188, 164, 33, 184, 187, 54, 106, 140, 191, 94, 132, 146, 74, 190, 52, 40, 59, 201, 122, 134, 191, 136, 33, 184, 187, 150, 6, 162, 190, 140, 58, 203, 63, 202, 52, 40, 59, 29, 110, 36, 191, 187, 104, 206, 188, 171, 147, 99, 191, 140, 58, 203, 63, 196, 52, 40, 59, 44, 213, 74, 191, 181, 184, 2, 63, 147, 170, 15, 191, 140, 58, 203, 63, 199, 52, 37, 59, 123, 18, 64, 191, 52, 249, 15, 191, 128, 188, 17, 191, 145, 194, 203, 63, 199, 52, 42, 59, 29, 110, 36, 191, 187, 104, 206, 188, 171, 147, 99, 191, 145, 194, 203, 63, 196, 52, 40, 59, 201, 122, 134, 191, 136, 33, 184, 187, 150, 6, 162, 190, 145, 194, 203, 63, 202, 52, 40, 59, 189, 107, 124, 191, 144, 235, 245, 190, 218, 246, 185, 60, 157, 203, 224, 69, 205, 52, 42, 59, 123, 18, 64, 191, 52, 249, 15, 191, 128, 188, 17, 191, 157, 203, 224, 69, 199, 52, 42, 59, 201, 122, 134, 191, 136, 33, 184, 187, 150, 6, 162, 190, 157, 203, 224, 69, 202, 52, 40, 59, 114, 41, 32, 191, 200, 32, 184, 187, 171, 194, 102, 63, 189, 10, 53, 63, 214, 52, 40, 59, 14, 160, 133, 191, 127, 104, 206, 188, 184, 28, 172, 62, 189, 10, 53, 63, 208, 52, 40, 59, 176, 80, 71, 191, 181, 184, 2, 63, 255, 129, 20, 63, 189, 10, 53, 63, 211, 52, 37, 59, 26, 245, 69, 191, 50, 249, 15, 191, 212, 162, 9, 63, 193, 242, 53, 63, 211, 52, 42, 59, 14, 160, 133, 191, 127, 104, 206, 188, 184, 28, 172, 62, 193, 242, 53, 63, 208, 52, 40, 59, 114, 41, 32, 191, 200, 32, 184, 187, 171, 194, 102, 63, 193, 242, 53, 63, 214, 52, 40, 59, 186, 242, 144, 190, 28, 236, 245, 190, 181, 220, 113, 63, 212, 231, 62, 69, 217, 52, 42, 59, 26, 245, 69, 191, 50, 249, 15, 191, 212, 162, 9, 63, 212, 231, 62, 69, 211, 52, 42, 59, 114, 41, 32, 191, 200, 32, 184, 187, 171, 194, 102, 63, 212, 231, 62, 69, 214, 52, 40, 59, 72, 249, 41, 63, 23, 32, 184, 187, 181, 161, 95, 63, 28, 11, 126, 47, 165, 52, 40, 59, 188, 83, 61, 187, 146, 104, 206, 188, 171, 97, 140, 63, 28, 11, 126, 47, 159, 52, 40, 59, 169, 75, 159, 62, 183, 184, 2, 63, 140, 115, 107, 63, 28, 11, 126, 47, 162, 52, 37, 59, 64, 117, 139, 62, 85, 249, 15, 191, 204, 204, 102, 63, 27, 240, 126, 47, 162, 52, 42, 59, 188, 83, 61, 187, 146, 104, 206, 188, 171, 97, 140, 63, 27, 240, 126, 47, 159, 52, 40, 59, 72, 249, 41, 63, 23, 32, 184, 187, 181, 161, 95, 63, 27, 240, 126, 47, 165, 52, 40, 59, 225, 42, 76, 63, 173, 179, 1, 191, 78, 178, 14, 63, 41, 231, 114, 91, 168, 52, 42, 59, 64, 117, 139, 62, 85, 249, 15, 191, 204, 204, 102, 63, 41, 231, 114, 91, 162, 52, 42, 59, 72, 249, 41, 63, 23, 32, 184, 187, 181, 161, 95, 63, 41, 231, 114, 91, 165, 52, 40, 59, 18, 155, 132, 63, 119, 33, 184, 187, 66, 24, 185, 190, 112, 14, 127, 127, 177, 52, 40, 59, 140, 101, 133, 63, 96, 104, 206, 188, 2, 237, 174, 62, 112, 14, 127, 127, 171, 52, 40, 59, 53, 132, 120, 63, 43, 183, 2, 63, 200, 1, 75, 188, 112, 14, 127, 127, 174, 52, 37, 59, 226, 96, 109, 63, 232, 244, 21, 191, 204, 5, 188, 60, 106, 236, 127, 127, 174, 52, 42, 59, 140, 101, 133, 63, 96, 104, 206, 188, 2, 237, 174, 62, 106, 236, 127, 127, 171, 52, 40, 59, 18, 155, 132, 63, 119, 33, 184, 187, 66, 24, 185, 190, 106, 236, 127, 127, 177, 52, 40, 59, 29, 204, 72, 63, 29, 236, 245, 190, 188, 17, 25, 191, 98, 206, 144, 114, 180, 52, 42, 59, 226, 96, 109, 63, 232, 244, 21, 191, 204, 5, 188, 60, 98, 206, 144, 114, 174, 52, 42, 59, 18, 155, 132, 63, 119, 33, 184, 187, 66, 24, 185, 190, 98, 206, 144, 114, 177, 52, 40, 59, 190, 128, 158, 62, 86, 249, 15, 191, 181, 180, 99, 191, 78, 164, 142, 34, 187, 52, 42, 59, 187, 163, 227, 62, 83, 53, 113, 191, 47, 69, 176, 190, 78, 164, 142, 34, 184, 52, 45, 59, 29, 204, 72, 63, 29, 236, 245, 190, 188, 17, 25, 191, 78, 164, 142, 34, 180, 52, 42, 59, 150, 198, 58, 190, 212, 235, 113, 191, 232, 197, 6, 191, 62, 145, 130, 47, 190, 52, 45, 59, 187, 163, 227, 62, 83, 53, 113, 191, 47, 69, 176, 190, 62, 145, 130, 47, 184, 52, 45, 59, 190, 128, 158, 62, 86, 249, 15, 191, 181, 180, 99, 191, 62, 145, 130, 47, 187, 52, 42, 59, 81, 14, 167, 190, 33, 236, 245, 190, 66, 69, 110, 191, 187, 133, 146, 74, 193, 52, 42, 59, 150, 198, 58, 190, 212, 235, 113, 191, 232, 197, 6, 191, 187, 133, 146, 74, 190, 52, 45, 59, 190, 128, 158, 62, 86, 249, 15, 191, 181, 180, 99, 191, 187, 133, 146, 74, 187, 52, 42, 59, 123, 18, 64, 191, 52, 249, 15, 191, 128, 188, 17, 191, 179, 160, 195, 57, 199, 52, 42, 59, 150, 198, 58, 190, 212, 235, 113, 191, 232, 197, 6, 191, 179, 160, 195, 57, 196, 52, 45, 59, 81, 14, 167, 190, 33, 236, 245, 190, 66, 69, 110, 191, 179, 160, 195, 57, 193, 52, 42, 59, 121, 155, 14, 191, 177, 235, 113, 191, 17, 195, 48, 60, 191, 167, 203, 63, 202, 52, 45, 59, 150, 198, 58, 190, 212, 235, 113, 191, 232, 197, 6, 191, 191, 167, 203, 63, 196, 52, 45, 59, 123, 18, 64, 191, 52, 249, 15, 191, 128, 188, 17, 191, 191, 167, 203, 63, 199, 52, 42, 59, 189, 107, 124, 191, 144, 235, 245, 190, 218, 246, 185, 60, 184, 188, 224, 69, 205, 52, 42, 59, 121, 155, 14, 191, 177, 235, 113, 191, 17, 195, 48, 60, 184, 188, 224, 69, 202, 52, 45, 59, 123, 18, 64, 191, 52, 249, 15, 191, 128, 188, 17, 191, 184, 188, 224, 69, 199, 52, 42, 59, 26, 245, 69, 191, 50, 249, 15, 191, 212, 162, 9, 63, 198, 203, 33, 57, 211, 52, 42, 59, 121, 155, 14, 191, 177, 235, 113, 191, 17, 195, 48, 60, 198, 203, 33, 57, 208, 52, 45, 59, 189, 107, 124, 191, 144, 235, 245, 190, 218, 246, 185, 60, 198, 203, 33, 57, 205, 52, 42, 59, 249, 194, 37, 190, 212, 235, 113, 191, 228, 122, 8, 63, 220, 196, 53, 63, 214, 52, 45, 59, 121, 155, 14, 191, 177, 235, 113, 191, 17, 195, 48, 60, 220, 196, 53, 63, 208, 52, 45, 59, 26, 245, 69, 191, 50, 249, 15, 191, 212, 162, 9, 63, 220, 196, 53, 63, 211, 52, 42, 59, 186, 242, 144, 190, 28, 236, 245, 190, 181, 220, 113, 63, 226, 207, 62, 69, 217, 52, 42, 59, 249, 194, 37, 190, 212, 235, 113, 191, 228, 122, 8, 63, 226, 207, 62, 69, 214, 52, 45, 59, 26, 245, 69, 191, 50, 249, 15, 191, 212, 162, 9, 63, 226, 207, 62, 69, 211, 52, 42, 59, 187, 163, 227, 62, 83, 53, 113, 191, 47, 69, 176, 190, 75, 184, 144, 114, 177, 52, 45, 59, 226, 96, 109, 63, 232, 244, 21, 191, 204, 5, 188, 60, 75, 184, 144, 114, 174, 52, 42, 59, 29, 204, 72, 63, 29, 236, 245, 190, 188, 17, 25, 191, 75, 184, 144, 114, 180, 52, 42, 59, 54, 226, 228, 62, 205, 102, 113, 191, 138, 114, 174, 62, 55, 185, 127, 127, 171, 52, 45, 59, 226, 96, 109, 63, 232, 244, 21, 191, 204, 5, 188, 60, 55, 185, 127, 127, 174, 52, 42, 59, 187, 163, 227, 62, 83, 53, 113, 191, 47, 69, 176, 190, 55, 185, 127, 127, 177, 52, 45, 59, 144, 26, 136, 59, 121, 97, 140, 191, 119, 36, 205, 60, 32, 164, 127, 127, 174, 52, 48, 59, 54, 226, 228, 62, 205, 102, 113, 191, 138, 114, 174, 62, 32, 164, 127, 127, 171, 52, 45, 59, 187, 163, 227, 62, 83, 53, 113, 191, 47, 69, 176, 190, 32, 164, 127, 127, 177, 52, 45, 59, 64, 117, 139, 62, 85, 249, 15, 191, 204, 204, 102, 63, 253, 199, 110, 51, 162, 52, 42, 59, 249, 194, 37, 190, 212, 235, 113, 191, 228, 122, 8, 63, 253, 199, 110, 51, 159, 52, 45, 59, 186, 242, 144, 190, 28, 236, 245, 190, 181, 220, 113, 63, 253, 199, 110, 51, 156, 52, 42, 59, 54, 226, 228, 62, 205, 102, 113, 191, 138, 114, 174, 62, 14, 193, 126, 79, 165, 52, 45, 59, 249, 194, 37, 190, 212, 235, 113, 191, 228, 122, 8, 63, 14, 193, 126, 79, 159, 52, 45, 59, 64, 117, 139, 62, 85, 249, 15, 191, 204, 204, 102, 63, 14, 193, 126, 79, 162, 52, 42, 59, 225, 42, 76, 63, 173, 179, 1, 191, 78, 178, 14, 63, 34, 208, 114, 91, 168, 52, 42, 59, 54, 226, 228, 62, 205, 102, 113, 191, 138, 114, 174, 62, 34, 208, 114, 91, 165, 52, 45, 59, 64, 117, 139, 62, 85, 249, 15, 191, 204, 204, 102, 63, 34, 208, 114, 91, 162, 52, 42, 59, 31, 197, 60, 63, 43, 194, 151, 62, 147, 43, 231, 62, 129, 0, 0, 127, 182, 58, 198, 46, 129, 143, 65, 63, 211, 1, 89, 190, 75, 234, 228, 62, 129, 0, 0, 127, 177, 58, 198, 46, 31, 197, 60, 63, 43, 194, 151, 62, 147, 43, 231, 190, 129, 0, 0, 127, 182, 58, 163, 46, 129, 143, 65, 63, 211, 1, 89, 190, 75, 234, 228, 190, 129, 0, 0, 127, 177, 58, 163, 46, 31, 197, 60, 63, 43, 194, 151, 62, 147, 43, 231, 190, 127, 127, 0, 127, 182, 58, 163, 46, 129, 143, 65, 63, 211, 1, 89, 190, 75, 234, 228, 190, 127, 127, 0, 127, 177, 58, 163, 46, 109, 87, 166, 63, 49, 225, 165, 62, 211, 45, 232, 190, 127, 127, 0, 127, 182, 58, 128, 46, 198, 255, 163, 63, 211, 1, 89, 190, 75, 234, 228, 190, 127, 127, 0, 127, 177, 58, 128, 46, 109, 87, 166, 63, 49, 225, 165, 62, 211, 45, 232, 190, 127, 0, 0, 127, 182, 58, 128, 46, 198, 255, 163, 63, 211, 1, 89, 190, 75, 234, 228, 190, 127, 0, 0, 127, 177, 58, 128, 46, 109, 87, 166, 63, 49, 225, 165, 62, 211, 45, 232, 62, 127, 0, 0, 127, 182, 58, 93, 46, 198, 255, 163, 63, 211, 1, 89, 190, 75, 234, 228, 62, 127, 0, 0, 127, 177, 58, 93, 46, 109, 87, 166, 63, 49, 225, 165, 62, 211, 45, 232, 62, 0, 0, 0, 127, 182, 58, 93, 46, 198, 255, 163, 63, 211, 1, 89, 190, 75, 234, 228, 62, 0, 0, 0, 127, 177, 58, 93, 46, 31, 197, 60, 63, 43, 194, 151, 62, 147, 43, 231, 62, 0, 0, 0, 127, 182, 58, 58, 46, 129, 143, 65, 63, 211, 1, 89, 190, 75, 234, 228, 62, 0, 0, 0, 127, 177, 58, 58, 46, 198, 255, 163, 63, 211, 1, 89, 190, 75, 234, 228, 190, 0, 129, 127, 64, 177, 58, 128, 46, 129, 143, 65, 63, 211, 1, 89, 190, 75, 234, 228, 190, 0, 129, 127, 64, 173, 58, 128, 46, 198, 255, 163, 63, 211, 1, 89, 190, 75, 234, 228, 62, 0, 129, 127, 64, 177, 58, 93, 46, 129, 143, 65, 63, 211, 1, 89, 190, 75, 234, 228, 62, 0, 129, 127, 64, 173, 58, 93, 46, 118, 10, 119, 62, 183, 10, 53, 63, 152, 85, 232, 190, 127, 127, 127, 64, 182, 58, 163, 46, 73, 26, 96, 63, 240, 131, 78, 63, 198, 79, 231, 190, 127, 127, 127, 64, 182, 58, 128, 46, 118, 10, 119, 62, 183, 10, 53, 63, 152, 85, 232, 190, 0, 127, 129, 64, 186, 58, 128, 46, 73, 26, 96, 63, 240, 131, 78, 63, 198, 79, 231, 190, 0, 127, 129, 64, 182, 58, 128, 46, 118, 10, 119, 62, 183, 10, 53, 63, 152, 85, 232, 62, 0, 127, 129, 64, 186, 58, 93, 46, 73, 26, 96, 63, 240, 131, 78, 63, 198, 79, 231, 62, 0, 127, 129, 64, 182, 58, 93, 46, 109, 87, 166, 63, 49, 225, 165, 62, 211, 45, 232, 190, 67, 59, 127, 64, 182, 58, 128, 46, 109, 87, 166, 63, 49, 225, 165, 62, 211, 45, 232, 62, 67, 59, 127, 64, 182, 58, 93, 46, 73, 26, 96, 63, 240, 131, 78, 63, 198, 79, 231, 190, 67, 59, 127, 64, 182, 58, 128, 46, 73, 26, 96, 63, 240, 131, 78, 63, 198, 79, 231, 62, 67, 59, 127, 64, 182, 58, 93, 46, 198, 255, 163, 63, 211, 1, 89, 190, 75, 234, 228, 190, 127, 127, 127, 64, 177, 58, 128, 46, 109, 87, 166, 63, 49, 225, 165, 62, 211, 45, 232, 190, 127, 127, 127, 64, 182, 58, 128, 46, 159, 200, 43, 63, 157, 101, 134, 62, 12, 142, 250, 190, 127, 127, 127, 64, 177, 58, 128, 46, 31, 197, 60, 63, 43, 194, 151, 62, 147, 43, 231, 62, 199, 187, 127, 64, 182, 58, 198, 46, 31, 197, 60, 63, 43, 194, 151, 62, 147, 43, 231, 190, 199, 187, 127, 64, 182, 58, 163, 46, 118, 10, 119, 62, 183, 10, 53, 63, 152, 85, 232, 62, 199, 187, 127, 64, 182, 58, 198, 46, 118, 10, 119, 62, 183, 10, 53, 63, 152, 85, 232, 190, 199, 187, 127, 64, 182, 58, 163, 46, 73, 26, 96, 63, 240, 131, 78, 63, 198, 79, 231, 62, 0, 0, 127, 192, 182, 58, 93, 46, 118, 10, 119, 62, 183, 10, 53, 63, 152, 85, 232, 62, 0, 0, 127, 192, 182, 58, 58, 46, 136, 87, 174, 191, 248, 107, 240, 190, 247, 77, 124, 191, 129, 41, 0, 127, 54, 44, 132, 55, 122, 167, 176, 191, 15, 17, 131, 191, 143, 136, 124, 191, 129, 41, 0, 127, 2, 44, 132, 55, 228, 100, 141, 191, 8, 149, 243, 190, 217, 125, 195, 191, 129, 41, 0, 127, 54, 44, 123, 55, 187, 116, 143, 191, 197, 36, 83, 191, 47, 237, 196, 191, 129, 41, 0, 127, 2, 44, 123, 55, 219, 161, 66, 63, 179, 211, 240, 190, 15, 117, 203, 191, 126, 80, 0, 127, 54, 44, 113, 55, 58, 90, 71, 63, 64, 91, 113, 191, 192, 226, 204, 191, 126, 80, 0, 127, 2, 44, 113, 55, 56, 156, 165, 63, 135, 43, 243, 190, 105, 108, 165, 191, 126, 80, 0, 127, 54, 44, 110, 55, 125, 172, 166, 63, 9, 255, 63, 191, 191, 250, 167, 191, 126, 80, 0, 127, 2, 44, 110, 55, 28, 87, 173, 63, 227, 167, 245, 190, 203, 191, 129, 191, 127, 0, 0, 127, 54, 44, 101, 55, 100, 225, 176, 63, 173, 29, 118, 191, 152, 4, 117, 191, 127, 0, 0, 127, 2, 44, 101, 55, 122, 169, 178, 63, 228, 132, 9, 191, 122, 198, 54, 191, 127, 0, 0, 127, 54, 44, 97, 55, 20, 1, 177, 63, 133, 176, 117, 191, 122, 198, 54, 191, 127, 0, 0, 127, 2, 44, 97, 55, 59, 227, 75, 191, 151, 213, 238, 190, 98, 172, 36, 191, 0, 0, 0, 127, 54, 44, 86, 55, 61, 77, 76, 191, 57, 107, 159, 191, 152, 57, 37, 191, 0, 0, 0, 127, 2, 44, 86, 55, 240, 19, 173, 191, 86, 122, 245, 190, 193, 254, 39, 191, 0, 0, 0, 127, 54, 44, 84, 55, 142, 249, 174, 191, 52, 63, 130, 191, 144, 171, 39, 191, 0, 0, 0, 127, 2, 44, 84, 55, 100, 225, 176, 63, 173, 29, 118, 191, 152, 4, 117, 191, 28, 160, 96, 78, 2, 44, 101, 55, 21, 163, 65, 63, 139, 179, 150, 191, 0, 24, 117, 191, 28, 160, 96, 78, 237, 43, 101, 55, 20, 1, 177, 63, 133, 176, 117, 191, 122, 198, 54, 191, 28, 160, 96, 78, 2, 44, 97, 55, 51, 163, 65, 63, 190, 179, 150, 191, 122, 198, 54, 191, 28, 160, 96, 78, 237, 43, 97, 55, 136, 87, 174, 191, 248, 107, 240, 190, 247, 77, 124, 191, 0, 127, 133, 63, 106, 44, 101, 55, 59, 227, 75, 191, 149, 214, 223, 190, 163, 206, 116, 191, 0, 127, 129, 64, 96, 44, 101, 55, 240, 19, 173, 191, 86, 122, 245, 190, 193, 254, 39, 191, 0, 127, 129, 64, 106, 44, 97, 55, 59, 227, 75, 191, 151, 213, 238, 190, 98, 172, 36, 191, 0, 127, 129, 64, 96, 44, 97, 55, 228, 100, 141, 191, 8, 149, 243, 190, 217, 125, 195, 191, 0, 127, 150, 63, 106, 44, 110, 55, 214, 241, 75, 191, 166, 35, 239, 190, 237, 7, 204, 191, 0, 127, 135, 63, 96, 44, 110, 55, 125, 172, 166, 63, 9, 255, 63, 191, 191, 250, 167, 191, 59, 159, 74, 71, 2, 44, 110, 55, 58, 90, 71, 63, 64, 91, 113, 191, 192, 226, 204, 191, 59, 159, 82, 78, 237, 43, 110, 55, 100, 225, 176, 63, 173, 29, 118, 191, 152, 4, 117, 191, 59, 159, 80, 76, 2, 44, 101, 55, 21, 163, 65, 63, 139, 179, 150, 191, 0, 24, 117, 191, 59, 159, 87, 81, 237, 43, 101, 55, 56, 156, 165, 63, 135, 43, 243, 190, 105, 108, 165, 191, 126, 236, 0, 127, 54, 44, 110, 55, 125, 172, 166, 63, 9, 255, 63, 191, 191, 250, 167, 191, 126, 236, 0, 127, 2, 44, 110, 55, 28, 87, 173, 63, 227, 167, 245, 190, 203, 191, 129, 191, 126, 236, 0, 127, 54, 44, 101, 55, 100, 225, 176, 63, 173, 29, 118, 191, 152, 4, 117, 191, 126, 236, 0, 127, 2, 44, 101, 55, 240, 19, 173, 191, 86, 122, 245, 190, 193, 254, 39, 191, 129, 0, 0, 127, 54, 44, 136, 55, 142, 249, 174, 191, 52, 63, 130, 191, 144, 171, 39, 191, 129, 0, 0, 127, 2, 44, 136, 55, 136, 87, 174, 191, 248, 107, 240, 190, 247, 77, 124, 191, 129, 0, 0, 127, 54, 44, 132, 55, 122, 167, 176, 191, 15, 17, 131, 191, 143, 136, 124, 191, 129, 0, 0, 127, 2, 44, 132, 55, 118, 169, 217, 62, 241, 142, 136, 191, 183, 40, 204, 191, 228, 129, 127, 64, 225, 43, 110, 55, 241, 115, 76, 191, 2, 152, 136, 191, 233, 30, 204, 191, 228, 129, 127, 64, 176, 43, 110, 55, 210, 61, 218, 62, 153, 106, 162, 191, 16, 202, 123, 191, 228, 129, 127, 64, 225, 43, 101, 55, 241, 251, 77, 191, 211, 98, 162, 191, 163, 177, 123, 191, 228, 129, 127, 64, 176, 43, 101, 55, 118, 169, 217, 62, 151, 213, 238, 190, 150, 244, 203, 191, 0, 127, 129, 64, 71, 44, 110, 55, 219, 161, 66, 63, 179, 211, 240, 190, 15, 117, 203, 191, 0, 127, 129, 74, 65, 44, 110, 55, 4, 26, 188, 62, 86, 122, 245, 190, 46, 203, 129, 191, 0, 127, 129, 64, 71, 44, 101, 55, 162, 65, 58, 63, 151, 213, 238, 190, 94, 116, 131, 191, 0, 127, 129, 72, 65, 44, 101, 55, 138, 64, 173, 63, 189, 116, 179, 190, 46, 203, 129, 191, 127, 0, 127, 64, 54, 44, 101, 55, 185, 233, 174, 63, 124, 25, 186, 190, 122, 198, 54, 191, 127, 0, 127, 64, 54, 44, 97, 55, 210, 61, 218, 62, 153, 106, 162, 191, 16, 202, 123, 191, 0, 129, 127, 64, 225, 43, 101, 55, 241, 251, 77, 191, 211, 98, 162, 191, 163, 177, 123, 191, 0, 129, 127, 64, 176, 43, 101, 55, 71, 22, 193, 62, 143, 11, 159, 191, 62, 49, 41, 191, 0, 129, 127, 64, 225, 43, 97, 55, 61, 77, 76, 191, 57, 107, 159, 191, 152, 57, 37, 191, 0, 129, 127, 64, 176, 43, 97, 55, 71, 22, 193, 62, 143, 11, 159, 191, 62, 49, 41, 191, 129, 0, 127, 64, 2, 44, 92, 55, 4, 26, 188, 62, 86, 122, 245, 190, 193, 254, 39, 191, 129, 0, 127, 64, 54, 44, 92, 55, 222, 153, 187, 62, 204, 118, 160, 191, 0, 0, 0, 0, 129, 0, 127, 64, 2, 44, 92, 55, 69, 117, 181, 62, 228, 132, 9, 191, 195, 208, 144, 61, 129, 0, 127, 64, 54, 44, 92, 55, 214, 241, 75, 191, 166, 35, 239, 190, 237, 7, 204, 191, 127, 127, 0, 127, 54, 44, 120, 55, 241, 115, 76, 191, 2, 152, 136, 191, 233, 30, 204, 191, 127, 127, 0, 127, 2, 44, 120, 55, 118, 169, 217, 62, 151, 213, 238, 190, 150, 244, 203, 191, 127, 127, 0, 127, 54, 44, 114, 55, 118, 169, 217, 62, 241, 142, 136, 191, 183, 40, 204, 191, 127, 127, 0, 127, 2, 44, 114, 55, 185, 233, 174, 63, 228, 132, 9, 191, 195, 208, 144, 61, 127, 0, 127, 64, 54, 44, 97, 55, 20, 1, 177, 63, 133, 176, 117, 191, 0, 0, 0, 0, 127, 0, 127, 64, 2, 44, 97, 55, 185, 233, 174, 63, 228, 132, 9, 191, 195, 208, 144, 61, 0, 0, 127, 192, 104, 43, 136, 55, 162, 65, 58, 63, 228, 132, 9, 191, 205, 204, 204, 61, 0, 0, 127, 192, 104, 43, 136, 55, 138, 64, 173, 63, 189, 116, 179, 190, 144, 123, 108, 61, 0, 0, 127, 192, 104, 43, 136, 55, 162, 65, 58, 63, 75, 229, 149, 190, 205, 204, 204, 61, 0, 0, 127, 192, 104, 43, 136, 55, 20, 1, 177, 63, 133, 176, 117, 191, 0, 0, 0, 0, 28, 160, 127, 64, 2, 44, 97, 55, 51, 163, 65, 63, 190, 179, 150, 191, 0, 0, 0, 0, 28, 160, 127, 64, 237, 43, 97, 55, 111, 59, 189, 62, 216, 187, 181, 190, 249, 120, 129, 191, 8, 134, 127, 64, 71, 44, 101, 55, 159, 1, 215, 62, 157, 32, 186, 190, 226, 56, 172, 191, 8, 134, 127, 64, 71, 44, 101, 55, 244, 197, 44, 61, 238, 255, 195, 190, 156, 15, 134, 191, 8, 134, 127, 64, 71, 44, 101, 55, 0, 27, 208, 60, 223, 152, 179, 190, 0, 24, 154, 191, 8, 134, 127, 64, 71, 44, 101, 55, 69, 117, 181, 62, 75, 229, 149, 190, 195, 208, 144, 61, 129, 0, 127, 64, 54, 44, 92, 55, 164, 174, 178, 62, 127, 52, 181, 190, 46, 66, 49, 191, 129, 0, 127, 64, 54, 44, 92, 55, 4, 26, 188, 62, 144, 246, 105, 188, 144, 123, 108, 61, 129, 0, 127, 64, 54, 44, 92, 55, 160, 113, 181, 62, 32, 185, 126, 187, 93, 244, 49, 191, 129, 0, 127, 64, 54, 44, 92, 55, 4, 26, 188, 62, 86, 122, 245, 190, 193, 254, 39, 191, 129, 0, 127, 64, 71, 44, 97, 55, 4, 26, 188, 62, 86, 122, 245, 190, 46, 203, 129, 191, 129, 0, 127, 64, 71, 44, 101, 55, 164, 174, 178, 62, 127, 52, 181, 190, 46, 66, 49, 191, 129, 0, 127, 64, 71, 44, 97, 55, 111, 59, 189, 62, 216, 187, 181, 190, 249, 120, 129, 191, 129, 0, 127, 64, 71, 44, 101, 55, 138, 64, 173, 63, 189, 116, 179, 190, 144, 123, 108, 61, 127, 0, 127, 64, 54, 44, 97, 55, 4, 26, 188, 62, 86, 122, 245, 190, 46, 203, 129, 191, 127, 127, 127, 64, 71, 44, 101, 55, 162, 65, 58, 63, 151, 213, 238, 190, 94, 116, 131, 191, 127, 127, 127, 64, 65, 44, 101, 55, 111, 59, 189, 62, 216, 187, 181, 190, 249, 120, 129, 191, 127, 127, 127, 64, 71, 44, 101, 55, 162, 65, 58, 63, 124, 25, 186, 190, 94, 116, 131, 191, 127, 127, 127, 64, 65, 44, 101, 55, 149, 89, 218, 62, 100, 242, 227, 60, 242, 53, 118, 191, 0, 127, 129, 64, 71, 44, 101, 55, 162, 65, 58, 63, 188, 63, 229, 60, 124, 227, 116, 191, 0, 127, 129, 64, 65, 44, 101, 55, 160, 113, 181, 62, 32, 185, 126, 187, 93, 244, 49, 191, 0, 127, 129, 64, 71, 44, 97, 55, 162, 65, 58, 63, 204, 64, 229, 60, 122, 198, 54, 191, 0, 127, 129, 64, 65, 44, 97, 55, 4, 26, 188, 62, 144, 246, 105, 188, 144, 123, 108, 61, 0, 127, 127, 64, 71, 44, 97, 55, 162, 65, 58, 63, 192, 245, 170, 186, 195, 208, 144, 61, 0, 127, 127, 64, 65, 44, 97, 55, 111, 59, 189, 62, 216, 187, 181, 190, 249, 120, 129, 191, 0, 129, 127, 64, 71, 44, 101, 55, 162, 65, 58, 63, 124, 25, 186, 190, 94, 116, 131, 191, 0, 129, 127, 64, 65, 44, 101, 55, 159, 1, 215, 62, 157, 32, 186, 190, 226, 56, 172, 191, 0, 129, 127, 64, 71, 44, 101, 55, 131, 187, 55, 63, 84, 236, 185, 190, 64, 174, 177, 191, 0, 129, 127, 64, 65, 44, 101, 55, 173, 220, 165, 63, 204, 64, 229, 60, 122, 198, 54, 191, 0, 127, 129, 64, 54, 44, 97, 55, 173, 220, 165, 63, 188, 63, 229, 60, 124, 227, 116, 191, 0, 127, 129, 64, 54, 44, 101, 55, 231, 4, 192, 63, 192, 245, 170, 186, 122, 198, 54, 191, 0, 127, 127, 64, 54, 44, 97, 55, 19, 31, 192, 63, 224, 220, 10, 187, 53, 14, 117, 191, 0, 127, 127, 64, 54, 44, 101, 55, 173, 220, 165, 63, 192, 245, 170, 186, 195, 208, 144, 61, 0, 0, 127, 192, 104, 43, 136, 55, 162, 65, 58, 63, 192, 245, 170, 186, 195, 208, 144, 61, 0, 0, 127, 192, 104, 43, 136, 55, 184, 91, 190, 63, 189, 116, 179, 190, 144, 123, 108, 61, 0, 0, 127, 192, 104, 43, 136, 55, 184, 91, 190, 63, 144, 246, 105, 188, 144, 123, 108, 61, 0, 0, 127, 192, 104, 43, 136, 55, 159, 1, 215, 62, 157, 32, 186, 190, 226, 56, 172, 191, 130, 145, 127, 64, 71, 44, 101, 55, 131, 187, 55, 63, 84, 236, 185, 190, 64, 174, 177, 191, 130, 145, 127, 64, 65, 44, 101, 55, 82, 31, 212, 62, 154, 164, 174, 189, 190, 201, 173, 191, 130, 145, 127, 64, 71, 44, 101, 55, 200, 178, 55, 63, 16, 95, 170, 189, 173, 24, 179, 191, 130, 145, 127, 64, 65, 44, 101, 55, 94, 221, 152, 63, 132, 37, 167, 189, 65, 237, 177, 191, 126, 78, 127, 64, 54, 44, 101, 55, 83, 143, 152, 63, 36, 242, 183, 190, 180, 47, 177, 191, 126, 78, 127, 64, 54, 44, 101, 55, 202, 87, 181, 63, 94, 248, 216, 189, 106, 216, 162, 191, 126, 78, 127, 64, 54, 44, 101, 55, 49, 47, 180, 63, 133, 129, 182, 190, 219, 4, 161, 191, 126, 78, 127, 64, 54, 44, 101, 55, 173, 220, 165, 63, 188, 63, 229, 60, 124, 227, 116, 191, 236, 126, 127, 64, 54, 44, 101, 55, 162, 65, 58, 63, 188, 63, 229, 60, 124, 227, 116, 191, 236, 126, 127, 64, 65, 44, 101, 55, 94, 221, 152, 63, 132, 37, 167, 189, 65, 237, 177, 191, 236, 126, 127, 64, 54, 44, 101, 55, 200, 178, 55, 63, 16, 95, 170, 189, 173, 24, 179, 191, 236, 126, 127, 64, 65, 44, 101, 55, 160, 113, 181, 62, 32, 185, 126, 187, 93, 244, 49, 191, 204, 0, 127, 192, 54, 44, 92, 55, 164, 174, 178, 62, 127, 52, 181, 190, 46, 66, 49, 191, 204, 0, 127, 192, 54, 44, 92, 55, 223, 15, 44, 62, 128, 23, 222, 59, 196, 97, 81, 191, 204, 0, 127, 192, 54, 44, 92, 55, 115, 128, 36, 62, 230, 7, 184, 190, 157, 165, 78, 191, 204, 0, 127, 192, 54, 44, 92, 55, 231, 4, 192, 63, 124, 25, 186, 190, 122, 198, 54, 191, 127, 0, 127, 64, 54, 44, 97, 55, 184, 91, 190, 63, 189, 116, 179, 190, 144, 123, 108, 61, 127, 0, 127, 64, 54, 44, 97, 55, 231, 4, 192, 63, 192, 245, 170, 186, 122, 198, 54, 191, 127, 0, 127, 64, 54, 44, 97, 55, 184, 91, 190, 63, 144, 246, 105, 188, 144, 123, 108, 61, 127, 0, 127, 64, 54, 44, 97, 55, 40, 48, 192, 63, 154, 104, 185, 190, 186, 1, 117, 191, 127, 0, 127, 64, 54, 44, 101, 55, 19, 31, 192, 63, 224, 220, 10, 187, 53, 14, 117, 191, 127, 0, 127, 64, 54, 44, 101, 55, 40, 48, 192, 63, 154, 104, 185, 190, 186, 1, 117, 191, 127, 229, 127, 64, 54, 44, 101, 55, 19, 31, 192, 63, 224, 220, 10, 187, 53, 14, 117, 191, 127, 229, 127, 64, 54, 44, 101, 55, 49, 47, 180, 63, 133, 129, 182, 190, 219, 4, 161, 191, 127, 229, 127, 64, 54, 44, 101, 55, 202, 87, 181, 63, 94, 248, 216, 189, 106, 216, 162, 191, 127, 229, 127, 64, 54, 44, 101, 55, 173, 220, 165, 63, 188, 63, 229, 60, 124, 227, 116, 191, 32, 117, 127, 64, 54, 44, 101, 55, 94, 221, 152, 63, 132, 37, 167, 189, 65, 237, 177, 191, 32, 117, 127, 64, 54, 44, 101, 55, 19, 31, 192, 63, 224, 220, 10, 187, 53, 14, 117, 191, 32, 117, 127, 64, 54, 44, 101, 55, 202, 87, 181, 63, 94, 248, 216, 189, 106, 216, 162, 191, 32, 117, 127, 64, 54, 44, 101, 55, 185, 233, 174, 63, 124, 25, 186, 190, 122, 198, 54, 191, 0, 129, 127, 64, 54, 44, 97, 55, 138, 64, 173, 63, 189, 116, 179, 190, 144, 123, 108, 61, 0, 129, 127, 64, 54, 44, 97, 55, 231, 4, 192, 63, 124, 25, 186, 190, 122, 198, 54, 191, 0, 129, 127, 64, 54, 44, 97, 55, 184, 91, 190, 63, 189, 116, 179, 190, 144, 123, 108, 61, 0, 129, 127, 64, 54, 44, 97, 55, 138, 64, 173, 63, 189, 116, 179, 190, 46, 203, 129, 191, 0, 129, 127, 64, 54, 44, 101, 55, 40, 48, 192, 63, 154, 104, 185, 190, 186, 1, 117, 191, 0, 129, 127, 64, 54, 44, 101, 55, 83, 143, 152, 63, 36, 242, 183, 190, 180, 47, 177, 191, 0, 129, 127, 64, 54, 44, 101, 55, 49, 47, 180, 63, 133, 129, 182, 190, 219, 4, 161, 191, 0, 129, 127, 64, 54, 44, 101, 55, 173, 220, 165, 63, 192, 245, 170, 186, 195, 208, 144, 61, 0, 127, 127, 64, 54, 44, 97, 55, 184, 91, 190, 63, 144, 246, 105, 188, 144, 123, 108, 61, 0, 127, 127, 64, 54, 44, 97, 55, 228, 100, 141, 191, 8, 149, 243, 190, 217, 125, 195, 191, 130, 150, 0, 127, 54, 44, 123, 55, 187, 116, 143, 191, 197, 36, 83, 191, 47, 237, 196, 191, 130, 150, 0, 127, 2, 44, 123, 55, 214, 241, 75, 191, 166, 35, 239, 190, 237, 7, 204, 191, 130, 150, 0, 127, 54, 44, 120, 55, 241, 115, 76, 191, 2, 152, 136, 191, 233, 30, 204, 191, 130, 150, 0, 127, 2, 44, 120, 55, 241, 251, 77, 191, 211, 98, 162, 191, 163, 177, 123, 191, 221, 165, 91, 44, 176, 43, 101, 55, 122, 167, 176, 191, 15, 17, 131, 191, 143, 136, 124, 191, 221, 165, 91, 44, 156, 43, 101, 55, 61, 77, 76, 191, 57, 107, 159, 191, 152, 57, 37, 191, 221, 165, 91, 44, 176, 43, 97, 55, 142, 249, 174, 191, 52, 63, 130, 191, 144, 171, 39, 191, 221, 165, 91, 44, 156, 43, 97, 55, 241, 115, 76, 191, 2, 152, 136, 191, 233, 30, 204, 191, 193, 164, 86, 40, 176, 43, 110, 55, 187, 116, 143, 191, 197, 36, 83, 191, 47, 237, 196, 191, 193, 164, 86, 40, 156, 43, 110, 55, 241, 251, 77, 191, 211, 98, 162, 191, 163, 177, 123, 191, 193, 164, 84, 40, 176, 43, 101, 55, 122, 167, 176, 191, 15, 17, 131, 191, 143, 136, 124, 191, 193, 164, 84, 40, 156, 43, 101, 55, 4, 26, 188, 62, 86, 122, 245, 190, 193, 254, 39, 191, 0, 127, 129, 64, 71, 44, 97, 55, 4, 26, 188, 62, 86, 122, 245, 190, 193, 254, 39, 191, 0, 0, 0, 127, 54, 44, 92, 55, 71, 22, 193, 62, 143, 11, 159, 191, 62, 49, 41, 191, 0, 0, 0, 127, 2, 44, 92, 55, 162, 65, 58, 63, 188, 63, 229, 60, 124, 227, 116, 191, 234, 125, 127, 64, 65, 44, 101, 55, 149, 89, 218, 62, 100, 242, 227, 60, 242, 53, 118, 191, 234, 125, 127, 64, 71, 44, 101, 55, 200, 178, 55, 63, 16, 95, 170, 189, 173, 24, 179, 191, 234, 125, 127, 64, 65, 44, 101, 55, 82, 31, 212, 62, 154, 164, 174, 189, 190, 201, 173, 191, 234, 125, 127, 64, 71, 44, 101, 55, 131, 187, 55, 63, 84, 236, 185, 190, 64, 174, 177, 191, 127, 127, 127, 64, 65, 44, 101, 55, 83, 143, 152, 63, 36, 242, 183, 190, 180, 47, 177, 191, 127, 127, 127, 64, 54, 44, 101, 55, 200, 178, 55, 63, 16, 95, 170, 189, 173, 24, 179, 191, 127, 127, 127, 64, 65, 44, 101, 55, 94, 221, 152, 63, 132, 37, 167, 189, 65, 237, 177, 191, 127, 127, 127, 64, 54, 44, 101, 55, 69, 117, 181, 62, 75, 229, 149, 190, 195, 208, 144, 61, 0, 0, 127, 192, 104, 43, 136, 55, 4, 26, 188, 62, 144, 246, 105, 188, 144, 123, 108, 61, 0, 0, 127, 192, 104, 43, 136, 55, 28, 87, 173, 63, 227, 167, 245, 190, 203, 191, 129, 191, 127, 127, 127, 64, 54, 44, 101, 55, 138, 64, 173, 63, 189, 116, 179, 190, 46, 203, 129, 191, 127, 127, 127, 64, 54, 44, 101, 55, 71, 22, 193, 62, 143, 11, 159, 191, 62, 49, 41, 191, 28, 160, 96, 78, 225, 43, 97, 55, 222, 153, 187, 62, 204, 118, 160, 191, 0, 0, 0, 0, 28, 160, 127, 64, 225, 43, 97, 55, 69, 117, 181, 62, 228, 132, 9, 191, 195, 208, 144, 61, 0, 0, 127, 192, 104, 43, 136, 55, 56, 156, 165, 63, 135, 43, 243, 190, 105, 108, 165, 191, 0, 127, 129, 75, 54, 44, 110, 55, 28, 87, 173, 63, 227, 167, 245, 190, 203, 191, 129, 191, 0, 127, 129, 64, 54, 44, 101, 55, 58, 90, 71, 63, 64, 91, 113, 191, 192, 226, 204, 191, 47, 154, 96, 78, 237, 43, 110, 55, 118, 169, 217, 62, 241, 142, 136, 191, 183, 40, 204, 191, 47, 154, 96, 78, 225, 43, 110, 55, 21, 163, 65, 63, 139, 179, 150, 191, 0, 24, 117, 191, 47, 154, 96, 78, 237, 43, 101, 55, 210, 61, 218, 62, 153, 106, 162, 191, 16, 202, 123, 191, 47, 154, 96, 78, 225, 43, 101, 55, 210, 61, 218, 62, 153, 106, 162, 191, 16, 202, 123, 191, 28, 160, 96, 78, 225, 43, 101, 55, 219, 161, 66, 63, 179, 211, 240, 190, 15, 117, 203, 191, 127, 127, 0, 127, 54, 44, 113, 55, 58, 90, 71, 63, 64, 91, 113, 191, 192, 226, 204, 191, 127, 127, 0, 127, 2, 44, 113, 55, 115, 128, 36, 62, 230, 7, 184, 190, 157, 165, 78, 191, 170, 0, 127, 192, 71, 44, 97, 55, 244, 197, 44, 61, 238, 255, 195, 190, 156, 15, 134, 191, 170, 0, 127, 192, 71, 44, 101, 55, 223, 15, 44, 62, 128, 23, 222, 59, 196, 97, 81, 191, 170, 0, 127, 192, 71, 44, 97, 55, 87, 3, 87, 61, 40, 38, 27, 188, 198, 51, 136, 191, 170, 0, 127, 192, 71, 44, 101, 55, 87, 3, 87, 61, 40, 38, 27, 188, 198, 51, 136, 191, 143, 0, 127, 192, 71, 44, 101, 55, 244, 197, 44, 61, 238, 255, 195, 190, 156, 15, 134, 191, 143, 0, 127, 192, 71, 44, 101, 55, 80, 140, 201, 60, 46, 58, 187, 189, 139, 87, 155, 191, 143, 0, 127, 192, 71, 44, 101, 55, 0, 27, 208, 60, 223, 152, 179, 190, 0, 24, 154, 191, 143, 0, 127, 192, 71, 44, 101, 55, 149, 89, 218, 62, 100, 242, 227, 60, 242, 53, 118, 191, 251, 124, 127, 64, 71, 44, 101, 55, 160, 113, 181, 62, 32, 185, 126, 187, 93, 244, 49, 191, 251, 124, 127, 64, 71, 44, 97, 55, 87, 3, 87, 61, 40, 38, 27, 188, 198, 51, 136, 191, 251, 124, 127, 64, 71, 44, 101, 55, 223, 15, 44, 62, 128, 23, 222, 59, 196, 97, 81, 191, 251, 124, 127, 64, 71, 44, 97, 55, 159, 1, 215, 62, 157, 32, 186, 190, 226, 56, 172, 191, 129, 95, 127, 64, 71, 44, 101, 55, 82, 31, 212, 62, 154, 164, 174, 189, 190, 201, 173, 191, 129, 95, 127, 64, 71, 44, 101, 55, 0, 27, 208, 60, 223, 152, 179, 190, 0, 24, 154, 191, 129, 95, 127, 64, 71, 44, 101, 55, 80, 140, 201, 60, 46, 58, 187, 189, 139, 87, 155, 191, 129, 95, 127, 64, 71, 44, 101, 55, 82, 31, 212, 62, 154, 164, 174, 189, 190, 201, 173, 191, 226, 124, 127, 64, 71, 44, 101, 55, 149, 89, 218, 62, 100, 242, 227, 60, 242, 53, 118, 191, 226, 124, 127, 64, 71, 44, 101, 55, 80, 140, 201, 60, 46, 58, 187, 189, 139, 87, 155, 191, 226, 124, 127, 64, 71, 44, 101, 55, 87, 3, 87, 61, 40, 38, 27, 188, 198, 51, 136, 191, 226, 124, 127, 64, 71, 44, 101, 55, 164, 174, 178, 62, 127, 52, 181, 190, 46, 66, 49, 191, 2, 136, 127, 192, 71, 44, 97, 55, 111, 59, 189, 62, 216, 187, 181, 190, 249, 120, 129, 191, 2, 136, 127, 192, 71, 44, 101, 55, 115, 128, 36, 62, 230, 7, 184, 190, 157, 165, 78, 191, 2, 136, 127, 192, 71, 44, 97, 55, 244, 197, 44, 61, 238, 255, 195, 190, 156, 15, 134, 191, 2, 136, 127, 192, 71, 44, 101, 55, 162, 14, 143, 191, 223, 83, 83, 191, 65, 93, 197, 63, 171, 0, 0, 129, 2, 44, 123, 55, 122, 167, 176, 191, 15, 17, 131, 191, 143, 136, 124, 63, 171, 0, 0, 129, 2, 44, 132, 55, 228, 100, 141, 191, 8, 149, 243, 190, 217, 125, 195, 63, 171, 0, 0, 129, 54, 44, 123, 55, 136, 87, 174, 191, 248, 107, 240, 190, 247, 77, 124, 63, 171, 0, 0, 129, 54, 44, 132, 55, 125, 172, 166, 63, 9, 255, 63, 191, 191, 250, 167, 63, 45, 0, 0, 129, 2, 44, 110, 55, 90, 172, 70, 63, 34, 199, 114, 191, 97, 191, 204, 63, 45, 0, 0, 129, 2, 44, 113, 55, 56, 156, 165, 63, 135, 43, 243, 190, 105, 108, 165, 63, 45, 0, 0, 129, 54, 44, 110, 55, 219, 161, 66, 63, 179, 211, 240, 190, 15, 117, 203, 63, 45, 0, 0, 129, 54, 44, 113, 55, 20, 1, 177, 63, 133, 176, 117, 191, 122, 198, 54, 63, 127, 0, 0, 129, 2, 44, 97, 55, 100, 225, 176, 63, 173, 29, 118, 191, 152, 4, 117, 63, 127, 0, 0, 129, 2, 44, 101, 55, 122, 169, 178, 63, 228, 132, 9, 191, 122, 198, 54, 63, 127, 0, 0, 129, 54, 44, 97, 55, 28, 87, 173, 63, 227, 167, 245, 190, 203, 191, 129, 63, 127, 0, 0, 129, 54, 44, 101, 55, 142, 249, 174, 191, 52, 63, 130, 191, 144, 171, 39, 63, 127, 127, 0, 129, 2, 44, 84, 55, 61, 77, 76, 191, 57, 107, 159, 191, 152, 57, 37, 63, 127, 127, 0, 129, 2, 44, 86, 55, 240, 19, 173, 191, 86, 122, 245, 190, 193, 254, 39, 63, 127, 127, 0, 129, 54, 44, 84, 55, 59, 227, 75, 191, 151, 213, 238, 190, 98, 172, 36, 63, 127, 127, 0, 129, 54, 44, 86, 55, 51, 163, 65, 63, 190, 179, 150, 191, 122, 198, 54, 63, 28, 160, 96, 178, 237, 43, 97, 55, 21, 163, 65, 63, 139, 179, 150, 191, 0, 24, 117, 63, 28, 160, 96, 178, 237, 43, 101, 55, 20, 1, 177, 63, 133, 176, 117, 191, 122, 198, 54, 63, 28, 160, 96, 178, 2, 44, 97, 55, 100, 225, 176, 63, 173, 29, 118, 191, 152, 4, 117, 63, 28, 160, 96, 178, 2, 44, 101, 55, 59, 227, 75, 191, 151, 213, 238, 190, 98, 172, 36, 63, 0, 127, 129, 192, 96, 44, 97, 55, 59, 227, 75, 191, 149, 214, 223, 190, 163, 206, 116, 63, 0, 127, 129, 192, 96, 44, 101, 55, 240, 19, 173, 191, 86, 122, 245, 190, 193, 254, 39, 63, 0, 127, 129, 192, 106, 44, 97, 55, 136, 87, 174, 191, 248, 107, 240, 190, 247, 77, 124, 63, 0, 127, 129, 192, 106, 44, 101, 55, 214, 241, 75, 191, 166, 35, 239, 190, 237, 7, 204, 63, 0, 127, 129, 190, 96, 44, 110, 55, 228, 100, 141, 191, 8, 149, 243, 190, 217, 125, 195, 63, 0, 127, 129, 184, 106, 44, 110, 55, 21, 163, 65, 63, 139, 179, 150, 191, 0, 24, 117, 63, 29, 189, 90, 173, 237, 43, 101, 55, 90, 172, 70, 63, 34, 199, 114, 191, 97, 191, 204, 63, 29, 189, 97, 171, 237, 43, 110, 55, 100, 225, 176, 63, 173, 29, 118, 191, 152, 4, 117, 63, 29, 189, 101, 171, 2, 44, 101, 55, 125, 172, 166, 63, 9, 255, 63, 191, 191, 250, 167, 63, 29, 189, 110, 167, 2, 44, 110, 55, 100, 225, 176, 63, 173, 29, 118, 191, 152, 4, 117, 63, 106, 0, 0, 129, 2, 44, 101, 55, 125, 172, 166, 63, 9, 255, 63, 191, 191, 250, 167, 63, 106, 0, 0, 129, 2, 44, 110, 55, 28, 87, 173, 63, 227, 167, 245, 190, 203, 191, 129, 63, 106, 0, 0, 129, 54, 44, 101, 55, 56, 156, 165, 63, 135, 43, 243, 190, 105, 108, 165, 63, 106, 0, 0, 129, 54, 44, 110, 55, 122, 167, 176, 191, 15, 17, 131, 191, 143, 136, 124, 63, 129, 0, 0, 129, 2, 44, 132, 55, 142, 249, 174, 191, 52, 63, 130, 191, 144, 171, 39, 63, 129, 0, 0, 129, 2, 44, 136, 55, 136, 87, 174, 191, 248, 107, 240, 190, 247, 77, 124, 63, 129, 0, 0, 129, 54, 44, 132, 55, 240, 19, 173, 191, 86, 122, 245, 190, 193, 254, 39, 63, 129, 0, 0, 129, 54, 44, 136, 55, 241, 251, 77, 191, 211, 98, 162, 191, 163, 177, 123, 63, 0, 160, 127, 192, 176, 43, 101, 55, 241, 115, 76, 191, 2, 152, 136, 191, 233, 30, 204, 63, 0, 160, 127, 192, 176, 43, 110, 55, 210, 61, 218, 62, 153, 106, 162, 191, 16, 202, 123, 63, 0, 160, 127, 192, 225, 43, 101, 55, 118, 169, 217, 62, 241, 142, 136, 191, 183, 40, 204, 63, 0, 160, 127, 192, 225, 43, 110, 55, 162, 65, 58, 63, 151, 213, 238, 190, 94, 116, 131, 63, 0, 127, 148, 193, 65, 44, 101, 55, 219, 161, 66, 63, 179, 211, 240, 190, 15, 117, 203, 63, 0, 127, 151, 193, 65, 44, 110, 55, 4, 26, 188, 62, 86, 122, 245, 190, 46, 203, 129, 63, 0, 127, 129, 192, 71, 44, 101, 55, 118, 169, 217, 62, 151, 213, 238, 190, 150, 244, 203, 63, 0, 127, 129, 192, 71, 44, 110, 55, 185, 233, 174, 63, 124, 25, 186, 190, 122, 198, 54, 63, 127, 0, 127, 64, 54, 44, 97, 55, 138, 64, 173, 63, 189, 116, 179, 190, 46, 203, 129, 63, 127, 0, 127, 64, 54, 44, 101, 55, 61, 77, 76, 191, 57, 107, 159, 191, 152, 57, 37, 63, 0, 129, 127, 192, 176, 43, 97, 55, 241, 251, 77, 191, 211, 98, 162, 191, 163, 177, 123, 63, 0, 129, 127, 192, 176, 43, 101, 55, 71, 22, 193, 62, 143, 11, 159, 191, 62, 49, 41, 63, 0, 129, 127, 192, 225, 43, 97, 55, 210, 61, 218, 62, 153, 106, 162, 191, 16, 202, 123, 63, 0, 129, 127, 192, 225, 43, 101, 55, 4, 26, 188, 62, 86, 122, 245, 190, 193, 254, 39, 63, 129, 0, 127, 64, 54, 44, 92, 55, 71, 22, 193, 62, 143, 11, 159, 191, 62, 49, 41, 63, 129, 0, 127, 64, 2, 44, 92, 55, 118, 169, 217, 62, 241, 142, 136, 191, 183, 40, 204, 63, 0, 0, 0, 129, 2, 44, 114, 55, 241, 115, 76, 191, 2, 152, 136, 191, 233, 30, 204, 63, 0, 0, 0, 129, 2, 44, 120, 55, 118, 169, 217, 62, 151, 213, 238, 190, 150, 244, 203, 63, 0, 0, 0, 129, 54, 44, 114, 55, 214, 241, 75, 191, 166, 35, 239, 190, 237, 7, 204, 63, 0, 0, 0, 129, 54, 44, 120, 55, 0, 27, 208, 60, 223, 152, 179, 190, 0, 24, 154, 63, 3, 139, 127, 192, 71, 44, 101, 55, 204, 144, 211, 62, 11, 9, 186, 190, 54, 33, 172, 63, 3, 139, 127, 192, 71, 44, 101, 55, 102, 78, 26, 61, 86, 86, 196, 190, 101, 1, 136, 63, 3, 139, 127, 192, 71, 44, 101, 55, 111, 59, 189, 62, 216, 187, 181, 190, 249, 120, 129, 63, 3, 139, 127, 192, 71, 44, 101, 55, 160, 113, 181, 62, 32, 185, 126, 187, 93, 244, 49, 63, 129, 0, 127, 64, 54, 44, 92, 55, 164, 174, 178, 62, 127, 52, 181, 190, 46, 66, 49, 63, 129, 0, 127, 64, 54, 44, 92, 55, 111, 59, 189, 62, 216, 187, 181, 190, 249, 120, 129, 63, 129, 0, 127, 64, 71, 44, 101, 55, 4, 26, 188, 62, 86, 122, 245, 190, 46, 203, 129, 63, 129, 0, 127, 64, 71, 44, 101, 55, 164, 174, 178, 62, 127, 52, 181, 190, 46, 66, 49, 63, 129, 0, 127, 64, 71, 44, 97, 55, 4, 26, 188, 62, 86, 122, 245, 190, 193, 254, 39, 63, 129, 0, 127, 64, 71, 44, 97, 55, 162, 65, 58, 63, 124, 25, 186, 190, 94, 116, 131, 63, 0, 0, 127, 192, 65, 44, 101, 55, 162, 65, 58, 63, 151, 213, 238, 190, 94, 116, 131, 63, 0, 0, 127, 192, 65, 44, 101, 55, 111, 59, 189, 62, 216, 187, 181, 190, 249, 120, 129, 63, 0, 0, 127, 192, 71, 44, 101, 55, 4, 26, 188, 62, 86, 122, 245, 190, 46, 203, 129, 63, 0, 0, 127, 192, 71, 44, 101, 55, 162, 65, 58, 63, 204, 64, 229, 60, 122, 198, 54, 63, 0, 127, 129, 192, 65, 44, 97, 55, 162, 65, 58, 63, 188, 63, 229, 60, 124, 227, 116, 63, 0, 127, 129, 192, 65, 44, 101, 55, 160, 113, 181, 62, 32, 185, 126, 187, 93, 244, 49, 63, 0, 127, 129, 192, 71, 44, 97, 55, 44, 88, 218, 62, 52, 233, 227, 60, 80, 59, 118, 63, 0, 127, 129, 192, 71, 44, 101, 55, 131, 187, 55, 63, 84, 236, 185, 190, 64, 174, 177, 63, 0, 129, 127, 64, 65, 44, 101, 55, 162, 65, 58, 63, 124, 25, 186, 190, 94, 116, 131, 63, 0, 129, 127, 64, 65, 44, 101, 55, 204, 144, 211, 62, 11, 9, 186, 190, 54, 33, 172, 63, 0, 129, 127, 64, 71, 44, 101, 55, 111, 59, 189, 62, 216, 187, 181, 190, 249, 120, 129, 63, 0, 129, 127, 64, 71, 44, 101, 55, 19, 31, 192, 63, 224, 220, 10, 187, 53, 14, 117, 63, 0, 127, 127, 64, 54, 44, 101, 55, 173, 220, 165, 63, 188, 63, 229, 60, 124, 227, 116, 63, 0, 127, 129, 192, 54, 44, 101, 55, 231, 4, 192, 63, 192, 245, 170, 186, 122, 198, 54, 63, 0, 127, 127, 64, 54, 44, 97, 55, 173, 220, 165, 63, 204, 64, 229, 60, 122, 198, 54, 63, 0, 127, 129, 192, 54, 44, 97, 55, 200, 178, 55, 63, 16, 95, 170, 189, 173, 24, 179, 63, 241, 0, 127, 192, 65, 44, 101, 55, 131, 187, 55, 63, 84, 236, 185, 190, 64, 174, 177, 63, 241, 0, 127, 192, 65, 44, 101, 55, 82, 31, 212, 62, 154, 164, 174, 189, 190, 201, 173, 63, 241, 0, 127, 192, 71, 44, 101, 55, 204, 144, 211, 62, 11, 9, 186, 190, 54, 33, 172, 63, 241, 0, 127, 192, 71, 44, 101, 55, 49, 47, 180, 63, 133, 129, 182, 190, 219, 4, 161, 63, 47, 0, 127, 192, 54, 44, 101, 55, 83, 143, 152, 63, 36, 242, 183, 190, 180, 47, 177, 63, 47, 0, 127, 192, 54, 44, 101, 55, 202, 87, 181, 63, 94, 248, 216, 189, 106, 216, 162, 63, 47, 0, 127, 192, 54, 44, 101, 55, 94, 221, 152, 63, 133, 37, 167, 189, 65, 237, 177, 63, 47, 0, 127, 192, 54, 44, 101, 55, 200, 178, 55, 63, 16, 95, 170, 189, 173, 24, 179, 63, 0, 106, 127, 192, 65, 44, 101, 55, 162, 65, 58, 63, 188, 63, 229, 60, 124, 227, 116, 63, 0, 106, 127, 192, 65, 44, 101, 55, 94, 221, 152, 63, 133, 37, 167, 189, 65, 237, 177, 63, 0, 106, 127, 192, 54, 44, 101, 55, 173, 220, 165, 63, 188, 63, 229, 60, 124, 227, 116, 63, 0, 106, 127, 192, 54, 44, 101, 55, 3, 148, 39, 62, 214, 82, 183, 190, 70, 177, 77, 63, 130, 73, 127, 64, 54, 44, 92, 55, 164, 174, 178, 62, 127, 52, 181, 190, 46, 66, 49, 63, 130, 73, 127, 64, 54, 44, 92, 55, 223, 15, 44, 62, 128, 23, 222, 59, 196, 97, 81, 63, 130, 73, 127, 64, 54, 44, 92, 55, 160, 113, 181, 62, 32, 185, 126, 187, 93, 244, 49, 63, 130, 73, 127, 64, 54, 44, 92, 55, 231, 4, 192, 63, 192, 245, 170, 186, 122, 198, 54, 63, 127, 0, 127, 64, 54, 44, 97, 55, 231, 4, 192, 63, 124, 25, 186, 190, 122, 198, 54, 63, 127, 0, 127, 64, 54, 44, 97, 55, 19, 31, 192, 63, 224, 220, 10, 187, 53, 14, 117, 63, 127, 0, 127, 64, 54, 44, 101, 55, 40, 48, 192, 63, 154, 104, 185, 190, 186, 1, 117, 63, 127, 0, 127, 64, 54, 44, 101, 55, 202, 87, 181, 63, 94, 248, 216, 189, 106, 216, 162, 63, 98, 0, 127, 192, 54, 44, 101, 55, 19, 31, 192, 63, 224, 220, 10, 187, 53, 14, 117, 63, 98, 0, 127, 192, 54, 44, 101, 55, 49, 47, 180, 63, 133, 129, 182, 190, 219, 4, 161, 63, 98, 0, 127, 192, 54, 44, 101, 55, 40, 48, 192, 63, 154, 104, 185, 190, 186, 1, 117, 63, 98, 0, 127, 192, 54, 44, 101, 55, 202, 87, 181, 63, 94, 248, 216, 189, 106, 216, 162, 63, 8, 94, 127, 192, 54, 44, 101, 55, 94, 221, 152, 63, 133, 37, 167, 189, 65, 237, 177, 63, 8, 94, 127, 192, 54, 44, 101, 55, 19, 31, 192, 63, 224, 220, 10, 187, 53, 14, 117, 63, 8, 94, 127, 192, 54, 44, 101, 55, 173, 220, 165, 63, 188, 63, 229, 60, 124, 227, 116, 63, 8, 94, 127, 192, 54, 44, 101, 55, 231, 4, 192, 63, 124, 25, 186, 190, 122, 198, 54, 63, 0, 129, 127, 64, 54, 44, 97, 55, 185, 233, 174, 63, 124, 25, 186, 190, 122, 198, 54, 63, 0, 129, 127, 64, 54, 44, 97, 55, 40, 48, 192, 63, 154, 104, 185, 190, 186, 1, 117, 63, 0, 129, 127, 64, 54, 44, 101, 55, 138, 64, 173, 63, 189, 116, 179, 190, 46, 203, 129, 63, 0, 129, 127, 64, 54, 44, 101, 55, 49, 47, 180, 63, 133, 129, 182, 190, 219, 4, 161, 63, 0, 129, 127, 64, 54, 44, 101, 55, 83, 143, 152, 63, 36, 242, 183, 190, 180, 47, 177, 63, 0, 129, 127, 64, 54, 44, 101, 55, 241, 115, 76, 191, 2, 152, 136, 191, 233, 30, 204, 63, 236, 0, 0, 129, 2, 44, 120, 55, 162, 14, 143, 191, 223, 83, 83, 191, 65, 93, 197, 63, 236, 0, 0, 129, 2, 44, 123, 55, 214, 241, 75, 191, 166, 35, 239, 190, 237, 7, 204, 63, 236, 0, 0, 129, 54, 44, 120, 55, 228, 100, 141, 191, 8, 149, 243, 190, 217, 125, 195, 63, 236, 0, 0, 129, 54, 44, 123, 55, 142, 249, 174, 191, 52, 63, 130, 191, 144, 171, 39, 63, 221, 165, 91, 212, 156, 43, 97, 55, 122, 167, 176, 191, 15, 17, 131, 191, 143, 136, 124, 63, 221, 165, 91, 212, 156, 43, 101, 55, 61, 77, 76, 191, 57, 107, 159, 191, 152, 57, 37, 63, 221, 165, 91, 212, 176, 43, 97, 55, 241, 251, 77, 191, 211, 98, 162, 191, 163, 177, 123, 63, 221, 165, 91, 212, 176, 43, 101, 55, 122, 167, 176, 191, 15, 17, 131, 191, 143, 136, 124, 63, 222, 193, 81, 214, 156, 43, 101, 55, 162, 14, 143, 191, 223, 83, 83, 191, 65, 93, 197, 63, 222, 193, 80, 213, 156, 43, 110, 55, 241, 251, 77, 191, 211, 98, 162, 191, 163, 177, 123, 63, 222, 193, 79, 214, 176, 43, 101, 55, 241, 115, 76, 191, 2, 152, 136, 191, 233, 30, 204, 63, 222, 193, 80, 213, 176, 43, 110, 55, 4, 26, 188, 62, 86, 122, 245, 190, 193, 254, 39, 63, 0, 127, 129, 192, 71, 44, 97, 55, 71, 22, 193, 62, 143, 11, 159, 191, 62, 49, 41, 63, 127, 127, 0, 129, 2, 44, 92, 55, 4, 26, 188, 62, 86, 122, 245, 190, 193, 254, 39, 63, 127, 127, 0, 129, 54, 44, 92, 55, 82, 31, 212, 62, 154, 164, 174, 189, 190, 201, 173, 63, 255, 104, 127, 192, 71, 44, 101, 55, 44, 88, 218, 62, 52, 233, 227, 60, 80, 59, 118, 63, 255, 104, 127, 192, 71, 44, 101, 55, 200, 178, 55, 63, 16, 95, 170, 189, 173, 24, 179, 63, 255, 104, 127, 192, 65, 44, 101, 55, 162, 65, 58, 63, 188, 63, 229, 60, 124, 227, 116, 63, 255, 104, 127, 192, 65, 44, 101, 55, 94, 221, 152, 63, 133, 37, 167, 189, 65, 237, 177, 63, 0, 0, 127, 192, 54, 44, 101, 55, 83, 143, 152, 63, 36, 242, 183, 190, 180, 47, 177, 63, 0, 0, 127, 192, 54, 44, 101, 55, 200, 178, 55, 63, 16, 95, 170, 189, 173, 24, 179, 63, 0, 0, 127, 192, 65, 44, 101, 55, 131, 187, 55, 63, 84, 236, 185, 190, 64, 174, 177, 63, 0, 0, 127, 192, 65, 44, 101, 55, 138, 64, 173, 63, 189, 116, 179, 190, 46, 203, 129, 63, 0, 0, 127, 192, 54, 44, 101, 55, 28, 87, 173, 63, 227, 167, 245, 190, 203, 191, 129, 63, 0, 0, 127, 192, 54, 44, 101, 55, 71, 22, 193, 62, 143, 11, 159, 191, 62, 49, 41, 63, 28, 160, 96, 178, 225, 43, 97, 55, 28, 87, 173, 63, 227, 167, 245, 190, 203, 191, 129, 63, 0, 127, 129, 192, 54, 44, 101, 55, 56, 156, 165, 63, 135, 43, 243, 190, 105, 108, 165, 63, 0, 127, 153, 193, 54, 44, 110, 55, 210, 61, 218, 62, 153, 106, 162, 191, 16, 202, 123, 63, 22, 179, 96, 178, 225, 43, 101, 55, 118, 169, 217, 62, 241, 142, 136, 191, 183, 40, 204, 63, 22, 179, 96, 178, 225, 43, 110, 55, 21, 163, 65, 63, 139, 179, 150, 191, 0, 24, 117, 63, 22, 179, 96, 178, 237, 43, 101, 55, 90, 172, 70, 63, 34, 199, 114, 191, 97, 191, 204, 63, 22, 179, 96, 178, 237, 43, 110, 55, 210, 61, 218, 62, 153, 106, 162, 191, 16, 202, 123, 63, 28, 160, 96, 178, 225, 43, 101, 55, 90, 172, 70, 63, 34, 199, 114, 191, 97, 191, 204, 63, 0, 0, 0, 129, 2, 44, 113, 55, 219, 161, 66, 63, 179, 211, 240, 190, 15, 117, 203, 63, 0, 0, 0, 129, 54, 44, 113, 55, 24, 236, 101, 61, 224, 185, 213, 187, 169, 216, 136, 63, 129, 40, 127, 64, 71, 44, 101, 55, 102, 78, 26, 61, 86, 86, 196, 190, 101, 1, 136, 63, 129, 40, 127, 64, 71, 44, 101, 55, 223, 15, 44, 62, 128, 23, 222, 59, 196, 97, 81, 63, 129, 40, 127, 64, 71, 44, 97, 55, 3, 148, 39, 62, 214, 82, 183, 190, 70, 177, 77, 63, 129, 40, 127, 64, 71, 44, 97, 55, 0, 27, 208, 60, 223, 152, 179, 190, 0, 24, 154, 63, 130, 12, 127, 64, 71, 44, 101, 55, 102, 78, 26, 61, 86, 86, 196, 190, 101, 1, 136, 63, 130, 12, 127, 64, 71, 44, 101, 55, 16, 71, 253, 60, 141, 196, 199, 189, 33, 2, 157, 63, 130, 12, 127, 64, 71, 44, 101, 55, 24, 236, 101, 61, 224, 185, 213, 187, 169, 216, 136, 63, 130, 12, 127, 64, 71, 44, 101, 55, 223, 15, 44, 62, 128, 23, 222, 59, 196, 97, 81, 63, 254, 120, 127, 192, 71, 44, 97, 55, 160, 113, 181, 62, 32, 185, 126, 187, 93, 244, 49, 63, 254, 120, 127, 192, 71, 44, 97, 55, 24, 236, 101, 61, 224, 185, 213, 187, 169, 216, 136, 63, 254, 120, 127, 192, 71, 44, 101, 55, 44, 88, 218, 62, 52, 233, 227, 60, 80, 59, 118, 63, 254, 120, 127, 192, 71, 44, 101, 55, 16, 71, 253, 60, 141, 196, 199, 189, 33, 2, 157, 63, 225, 0, 127, 192, 71, 44, 101, 55, 82, 31, 212, 62, 154, 164, 174, 189, 190, 201, 173, 63, 225, 0, 127, 192, 71, 44, 101, 55, 0, 27, 208, 60, 223, 152, 179, 190, 0, 24, 154, 63, 225, 0, 127, 192, 71, 44, 101, 55, 204, 144, 211, 62, 11, 9, 186, 190, 54, 33, 172, 63, 225, 0, 127, 192, 71, 44, 101, 55, 24, 236, 101, 61, 224, 185, 213, 187, 169, 216, 136, 63, 254, 96, 127, 192, 71, 44, 101, 55, 44, 88, 218, 62, 52, 233, 227, 60, 80, 59, 118, 63, 254, 96, 127, 192, 71, 44, 101, 55, 16, 71, 253, 60, 141, 196, 199, 189, 33, 2, 157, 63, 254, 96, 127, 192, 71, 44, 101, 55, 82, 31, 212, 62, 154, 164, 174, 189, 190, 201, 173, 63, 254, 96, 127, 192, 71, 44, 101, 55, 102, 78, 26, 61, 86, 86, 196, 190, 101, 1, 136, 63, 5, 132, 127, 64, 71, 44, 101, 55, 111, 59, 189, 62, 216, 187, 181, 190, 249, 120, 129, 63, 5, 132, 127, 64, 71, 44, 101, 55, 3, 148, 39, 62, 214, 82, 183, 190, 70, 177, 77, 63, 5, 132, 127, 64, 71, 44, 97, 55, 164, 174, 178, 62, 127, 52, 181, 190, 46, 66, 49, 63, 5, 132, 127, 64, 71, 44, 97, 55 ),
"array_index_data": PoolByteArray( 0, 0, 2, 0, 1, 0, 3, 0, 5, 0, 4, 0, 6, 0, 8, 0, 7, 0, 9, 0, 11, 0, 10, 0, 12, 0, 14, 0, 13, 0, 15, 0, 17, 0, 16, 0, 18, 0, 20, 0, 19, 0, 21, 0, 23, 0, 22, 0, 24, 0, 26, 0, 25, 0, 27, 0, 29, 0, 28, 0, 30, 0, 32, 0, 31, 0, 33, 0, 35, 0, 34, 0, 36, 0, 38, 0, 37, 0, 39, 0, 41, 0, 40, 0, 42, 0, 44, 0, 43, 0, 45, 0, 47, 0, 46, 0, 48, 0, 50, 0, 49, 0, 51, 0, 53, 0, 52, 0, 54, 0, 56, 0, 55, 0, 57, 0, 59, 0, 58, 0, 60, 0, 62, 0, 61, 0, 63, 0, 65, 0, 64, 0, 66, 0, 68, 0, 67, 0, 69, 0, 71, 0, 70, 0, 72, 0, 74, 0, 73, 0, 75, 0, 77, 0, 76, 0, 78, 0, 80, 0, 79, 0, 81, 0, 83, 0, 82, 0, 84, 0, 86, 0, 85, 0, 87, 0, 89, 0, 88, 0, 90, 0, 92, 0, 91, 0, 93, 0, 95, 0, 94, 0, 96, 0, 98, 0, 97, 0, 99, 0, 101, 0, 100, 0, 102, 0, 104, 0, 103, 0, 105, 0, 107, 0, 106, 0, 108, 0, 110, 0, 109, 0, 111, 0, 113, 0, 112, 0, 114, 0, 116, 0, 115, 0, 117, 0, 119, 0, 118, 0, 120, 0, 122, 0, 121, 0, 123, 0, 125, 0, 124, 0, 126, 0, 128, 0, 127, 0, 129, 0, 131, 0, 130, 0, 132, 0, 134, 0, 133, 0, 135, 0, 137, 0, 136, 0, 138, 0, 140, 0, 139, 0, 141, 0, 143, 0, 142, 0, 144, 0, 146, 0, 145, 0, 147, 0, 149, 0, 148, 0, 150, 0, 152, 0, 151, 0, 153, 0, 155, 0, 154, 0, 156, 0, 158, 0, 157, 0, 159, 0, 161, 0, 160, 0, 162, 0, 164, 0, 163, 0, 165, 0, 167, 0, 166, 0, 168, 0, 170, 0, 169, 0, 171, 0, 173, 0, 172, 0, 174, 0, 176, 0, 175, 0, 177, 0, 179, 0, 178, 0, 180, 0, 182, 0, 181, 0, 183, 0, 185, 0, 184, 0, 186, 0, 188, 0, 187, 0, 189, 0, 191, 0, 190, 0, 192, 0, 194, 0, 193, 0, 195, 0, 197, 0, 196, 0, 198, 0, 200, 0, 199, 0, 201, 0, 203, 0, 202, 0, 204, 0, 206, 0, 205, 0, 207, 0, 209, 0, 208, 0, 210, 0, 212, 0, 211, 0, 213, 0, 215, 0, 214, 0, 216, 0, 218, 0, 217, 0, 219, 0, 221, 0, 220, 0, 222, 0, 224, 0, 223, 0, 225, 0, 227, 0, 226, 0, 228, 0, 230, 0, 229, 0, 231, 0, 233, 0, 232, 0, 234, 0, 236, 0, 235, 0, 237, 0, 239, 0, 238, 0, 240, 0, 242, 0, 241, 0, 242, 0, 243, 0, 241, 0, 244, 0, 246, 0, 245, 0, 246, 0, 247, 0, 245, 0, 248, 0, 250, 0, 249, 0, 250, 0, 251, 0, 249, 0, 252, 0, 254, 0, 253, 0, 254, 0, 255, 0, 253, 0, 0, 1, 2, 1, 1, 1, 2, 1, 3, 1, 1, 1, 244, 0, 4, 1, 246, 0, 4, 1, 5, 1, 246, 0, 6, 1, 8, 1, 7, 1, 8, 1, 9, 1, 7, 1, 10, 1, 12, 1, 11, 1, 12, 1, 13, 1, 11, 1, 14, 1, 16, 1, 15, 1, 16, 1, 5, 1, 15, 1, 17, 1, 19, 1, 18, 1, 19, 1, 20, 1, 18, 1, 252, 0, 21, 1, 254, 0, 21, 1, 22, 1, 254, 0, 23, 1, 25, 1, 24, 1, 25, 1, 26, 1, 24, 1, 27, 1, 29, 1, 28, 1, 29, 1, 30, 1, 28, 1, 31, 1, 33, 1, 32, 1, 33, 1, 34, 1, 32, 1, 35, 1, 37, 1, 36, 1, 37, 1, 38, 1, 36, 1, 39, 1, 41, 1, 40, 1, 41, 1, 42, 1, 40, 1, 43, 1, 45, 1, 44, 1, 45, 1, 46, 1, 44, 1, 47, 1, 43, 1, 48, 1, 43, 1, 44, 1, 48, 1, 49, 1, 51, 1, 50, 1, 51, 1, 52, 1, 50, 1, 53, 1, 55, 1, 54, 1, 55, 1, 56, 1, 54, 1, 57, 1, 59, 1, 58, 1, 59, 1, 60, 1, 58, 1, 61, 1, 63, 1, 62, 1, 63, 1, 64, 1, 62, 1, 65, 1, 67, 1, 66, 1, 67, 1, 68, 1, 66, 1, 31, 1, 69, 1, 33, 1, 69, 1, 70, 1, 33, 1, 71, 1, 73, 1, 72, 1, 73, 1, 74, 1, 72, 1, 75, 1, 77, 1, 76, 1, 77, 1, 78, 1, 76, 1, 79, 1, 81, 1, 80, 1, 81, 1, 82, 1, 80, 1, 33, 1, 83, 1, 34, 1, 83, 1, 84, 1, 34, 1, 85, 1, 87, 1, 86, 1, 87, 1, 88, 1, 86, 1, 41, 1, 89, 1, 42, 1, 89, 1, 90, 1, 42, 1, 91, 1, 93, 1, 92, 1, 93, 1, 94, 1, 92, 1, 95, 1, 97, 1, 96, 1, 97, 1, 98, 1, 96, 1, 99, 1, 101, 1, 100, 1, 101, 1, 102, 1, 100, 1, 78, 1, 95, 1, 76, 1, 95, 1, 96, 1, 76, 1, 33, 1, 70, 1, 83, 1, 70, 1, 103, 1, 83, 1, 104, 1, 106, 1, 105, 1, 106, 1, 107, 1, 105, 1, 108, 1, 110, 1, 109, 1, 110, 1, 111, 1, 109, 1, 110, 1, 112, 1, 111, 1, 112, 1, 113, 1, 111, 1, 114, 1, 116, 1, 115, 1, 116, 1, 117, 1, 115, 1, 118, 1, 120, 1, 119, 1, 120, 1, 121, 1, 119, 1, 87, 1, 122, 1, 88, 1, 122, 1, 123, 1, 88, 1, 87, 1, 124, 1, 122, 1, 124, 1, 125, 1, 122, 1, 126, 1, 128, 1, 127, 1, 128, 1, 129, 1, 127, 1, 130, 1, 132, 1, 131, 1, 132, 1, 133, 1, 131, 1, 134, 1, 136, 1, 135, 1, 136, 1, 137, 1, 135, 1, 138, 1, 140, 1, 139, 1, 140, 1, 141, 1, 139, 1, 142, 1, 144, 1, 143, 1, 144, 1, 145, 1, 143, 1, 146, 1, 147, 1, 142, 1, 147, 1, 144, 1, 142, 1, 148, 1, 150, 1, 149, 1, 150, 1, 151, 1, 149, 1, 152, 1, 154, 1, 153, 1, 154, 1, 155, 1, 153, 1, 156, 1, 158, 1, 157, 1, 158, 1, 159, 1, 157, 1, 160, 1, 161, 1, 156, 1, 161, 1, 158, 1, 156, 1, 162, 1, 163, 1, 160, 1, 163, 1, 161, 1, 160, 1, 164, 1, 165, 1, 118, 1, 165, 1, 120, 1, 118, 1, 166, 1, 168, 1, 167, 1, 168, 1, 169, 1, 167, 1, 170, 1, 172, 1, 171, 1, 172, 1, 173, 1, 171, 1, 174, 1, 176, 1, 175, 1, 176, 1, 177, 1, 175, 1, 48, 1, 44, 1, 65, 1, 44, 1, 67, 1, 65, 1, 44, 1, 46, 1, 67, 1, 46, 1, 178, 1, 67, 1, 179, 1, 35, 1, 180, 1, 35, 1, 36, 1, 180, 1, 181, 1, 183, 1, 182, 1, 183, 1, 184, 1, 182, 1, 185, 1, 187, 1, 186, 1, 187, 1, 188, 1, 186, 1, 88, 1, 123, 1, 189, 1, 123, 1, 190, 1, 189, 1, 115, 1, 117, 1, 160, 1, 117, 1, 162, 1, 160, 1, 111, 1, 113, 1, 118, 1, 113, 1, 164, 1, 118, 1, 109, 1, 111, 1, 119, 1, 111, 1, 118, 1, 119, 1, 105, 1, 107, 1, 191, 1, 107, 1, 192, 1, 191, 1, 42, 1, 90, 1, 193, 1, 90, 1, 194, 1, 193, 1, 86, 1, 88, 1, 195, 1, 88, 1, 189, 1, 195, 1, 66, 1, 68, 1, 196, 1, 68, 1, 197, 1, 196, 1, 198, 1, 200, 1, 199, 1, 200, 1, 201, 1, 199, 1, 40, 1, 42, 1, 202, 1, 42, 1, 193, 1, 202, 1, 81, 1, 203, 1, 82, 1, 203, 1, 204, 1, 82, 1, 205, 1, 207, 1, 206, 1, 207, 1, 208, 1, 206, 1, 209, 1, 211, 1, 210, 1, 211, 1, 212, 1, 210, 1, 213, 1, 215, 1, 214, 1, 215, 1, 216, 1, 214, 1, 217, 1, 219, 1, 218, 1, 219, 1, 220, 1, 218, 1, 221, 1, 223, 1, 222, 1, 223, 1, 224, 1, 222, 1, 225, 1, 227, 1, 226, 1, 227, 1, 228, 1, 226, 1, 229, 1, 231, 1, 230, 1, 231, 1, 232, 1, 230, 1, 233, 1, 235, 1, 234, 1, 235, 1, 236, 1, 234, 1, 237, 1, 239, 1, 238, 1, 239, 1, 240, 1, 238, 1, 241, 1, 243, 1, 242, 1, 243, 1, 244, 1, 242, 1, 245, 1, 247, 1, 246, 1, 247, 1, 248, 1, 246, 1, 249, 1, 251, 1, 250, 1, 251, 1, 252, 1, 250, 1, 250, 1, 252, 1, 253, 1, 252, 1, 254, 1, 253, 1, 255, 1, 1, 2, 0, 2, 1, 2, 2, 2, 0, 2, 3, 2, 5, 2, 4, 2, 5, 2, 6, 2, 4, 2, 7, 2, 9, 2, 8, 2, 9, 2, 10, 2, 8, 2, 11, 2, 13, 2, 12, 2, 13, 2, 14, 2, 12, 2, 15, 2, 17, 2, 16, 2, 17, 2, 18, 2, 16, 2, 19, 2, 20, 2, 239, 1, 20, 2, 240, 1, 239, 1, 21, 2, 23, 2, 22, 2, 23, 2, 24, 2, 22, 2, 78, 1, 77, 1, 25, 2, 77, 1, 26, 2, 25, 2, 27, 2, 29, 2, 28, 2, 29, 2, 30, 2, 28, 2, 84, 1, 83, 1, 237, 1, 83, 1, 239, 1, 237, 1, 90, 1, 89, 1, 245, 1, 89, 1, 247, 1, 245, 1, 31, 2, 33, 2, 32, 2, 33, 2, 34, 2, 32, 2, 35, 2, 97, 1, 36, 2, 97, 1, 95, 1, 36, 2, 37, 2, 39, 2, 38, 2, 39, 2, 40, 2, 38, 2, 36, 2, 95, 1, 25, 2, 95, 1, 78, 1, 25, 2, 103, 1, 19, 2, 83, 1, 19, 2, 239, 1, 83, 1, 41, 2, 43, 2, 42, 2, 43, 2, 44, 2, 42, 2, 45, 2, 47, 2, 46, 2, 47, 2, 48, 2, 46, 2, 113, 1, 112, 1, 45, 2, 112, 1, 47, 2, 45, 2, 49, 2, 51, 2, 50, 2, 51, 2, 52, 2, 50, 2, 53, 2, 55, 2, 54, 2, 55, 2, 56, 2, 54, 2, 57, 2, 59, 2, 58, 2, 59, 2, 60, 2, 58, 2, 61, 2, 63, 2, 62, 2, 63, 2, 64, 2, 62, 2, 65, 2, 67, 2, 66, 2, 67, 2, 68, 2, 66, 2, 69, 2, 71, 2, 70, 2, 71, 2, 72, 2, 70, 2, 145, 1, 73, 2, 143, 1, 73, 2, 74, 2, 143, 1, 73, 2, 75, 2, 74, 2, 75, 2, 76, 2, 74, 2, 77, 2, 79, 2, 78, 2, 79, 2, 80, 2, 78, 2, 81, 2, 83, 2, 82, 2, 83, 2, 84, 2, 82, 2, 159, 1, 85, 2, 157, 1, 85, 2, 86, 2, 157, 1, 85, 2, 87, 2, 86, 2, 87, 2, 88, 2, 86, 2, 87, 2, 89, 2, 88, 2, 89, 2, 90, 2, 88, 2, 55, 2, 165, 1, 56, 2, 165, 1, 164, 1, 56, 2, 91, 2, 93, 2, 92, 2, 93, 2, 94, 2, 92, 2, 95, 2, 97, 2, 96, 2, 97, 2, 98, 2, 96, 2, 99, 2, 101, 2, 100, 2, 101, 2, 102, 2, 100, 2, 17, 2, 250, 1, 18, 2, 250, 1, 253, 1, 18, 2, 103, 2, 249, 1, 17, 2, 249, 1, 250, 1, 17, 2, 242, 1, 244, 1, 104, 2, 244, 1, 105, 2, 104, 2, 106, 2, 108, 2, 107, 2, 108, 2, 109, 2, 107, 2, 110, 2, 112, 2, 111, 2, 112, 2, 113, 2, 111, 2, 90, 2, 49, 2, 88, 2, 49, 2, 50, 2, 88, 2, 164, 1, 113, 1, 56, 2, 113, 1, 45, 2, 56, 2, 56, 2, 45, 2, 54, 2, 45, 2, 46, 2, 54, 2, 114, 2, 41, 2, 115, 2, 41, 2, 42, 2, 115, 2, 194, 1, 90, 1, 116, 2, 90, 1, 245, 1, 116, 2, 117, 2, 15, 2, 118, 2, 15, 2, 16, 2, 118, 2, 119, 2, 121, 2, 120, 2, 121, 2, 122, 2, 120, 2, 116, 2, 245, 1, 123, 2, 245, 1, 246, 1, 123, 2, 124, 2, 125, 2, 27, 2, 125, 2, 29, 2, 27, 2, 126, 2, 128, 2, 127, 2, 128, 2, 129, 2, 127, 2, 130, 2, 132, 2, 131, 2, 132, 2, 133, 2, 131, 2, 134, 2, 136, 2, 135, 2, 136, 2, 137, 2, 135, 2, 138, 2, 140, 2, 139, 2, 140, 2, 141, 2, 139, 2, 142, 2, 144, 2, 143, 2, 144, 2, 145, 2, 143, 2, 146, 2, 148, 2, 147, 2, 148, 2, 149, 2, 147, 2 ),
"blend_shape_data": [  ],
"format": 2194711,
"index_count": 1092,
"material": SubResource( 2 ),
"primitive": 4,
"skeleton_aabb": [  ],
"vertex_count": 662
}

[sub_resource type="SpatialMaterial" id=4]
flags_unshaded = true
albedo_color = Color( 1, 0, 0, 1 )

[node name="submarine" type="KinematicBody"]
transform = Transform( -1, 0, -8.74228e-08, 0, 1, 0, 8.74228e-08, 0, -1, 0, 0, 0 )
script = ExtResource( 4 )

[node name="o2Consumer" parent="." instance=ExtResource( 1 )]
transform = Transform( 5, 0, 0, 0, 5, 0, 0, 0, 5, 0, 3.5, 0 )
current_o2_level = 1.0

[node name="shape" type="CollisionShape" parent="."]
transform = Transform( 1, 0, 0, 0, 1, 0, 0, 0, 1, 0, 3.5, 0 )
shape = SubResource( 1 )

[node name="mesh" type="MeshInstance" parent="."]
transform = Transform( 1, 0, 0, 0, 1, 0, 0, 0, 1, 0, 3.5, 0 )
mesh = ExtResource( 2 )
material/0 = ExtResource( 3 )

[node name="outline" type="MeshInstance" parent="mesh"]
visible = false
mesh = SubResource( 3 )
material/0 = SubResource( 4 )

[node name="nav_agent" type="NavigationAgent" parent="."]
avoidance_enabled = true
