# Blender v3.3.1 OBJ File: 'models.blend'
# www.blender.org
mtllib clione.mtl
o clione_Cube.012
v 0.062005 -0.072041 -0.090816
v 0.090816 0.072041 -0.090816
v -0.090816 -0.072041 -0.090816
v -0.090816 0.072041 -0.090816
v -0.172591 -0.123577 -0.155783
v -0.172591 0.123576 -0.155783
v -0.293101 -0.121758 -0.153491
v -0.293101 0.121758 -0.153491
v -0.372604 -0.040843 -0.051487
v -0.372604 0.040843 -0.051487
v 0.189806 -0.113001 -0.142451
v 0.189806 0.113001 -0.142451
v 0.426105 -0.113001 -0.142451
v 0.454916 0.113001 -0.142451
v 0.736506 -0.076850 -0.096879
v 0.736506 0.076850 -0.096879
v 1.114532 -0.025582 -0.032249
v 1.114532 0.025581 -0.032249
v 0.068069 -0.009899 -0.131897
v 0.068069 0.009899 -0.131897
v -0.588085 -0.010249 -0.162265
v -0.587953 0.013249 -0.162183
v -0.575480 0.015615 -0.202044
v -0.575638 -0.012478 -0.202141
v -0.065051 0.009668 -0.122323
v -0.065051 -0.009668 -0.122323
v -0.357047 -0.110772 0.000000
v -0.357047 0.110772 0.000000
v -0.135091 0.046565 -0.228910
v -0.135091 -0.046565 -0.228910
v -0.392037 -0.033162 -0.167977
v -0.392037 0.033161 -0.167977
v -0.336289 0.044804 -0.209088
v -0.336289 -0.044804 -0.209088
v -0.337597 0.091469 -0.115307
v -0.337597 -0.091469 -0.115307
v -0.390142 0.027737 -0.052498
v -0.390142 -0.027737 -0.052498
v 0.160052 -0.042963 -0.215390
v 0.160052 0.042963 -0.215390
v 0.020207 -0.002371 -0.549535
v 0.020207 0.002371 -0.549535
v 0.475235 -0.043584 -0.225471
v 0.475235 0.043584 -0.225471
v -0.057514 0.002316 -0.546003
v -0.057514 -0.002316 -0.546003
v 0.763152 -0.029178 -0.145839
v 0.763152 0.029178 -0.145839
v -0.152602 -0.008556 -0.329673
v -0.152602 0.008556 -0.329673
v 1.125593 -0.009044 -0.038689
v 1.125593 0.009044 -0.038689
v 0.134523 0.008760 -0.342721
v 0.134523 -0.008760 -0.342721
v 0.082272 -0.088837 0.000000
v 0.082272 0.088837 0.000000
v -0.081503 -0.085225 0.000000
v -0.081503 0.085225 0.000000
v -0.155709 -0.161839 0.000000
v -0.155709 0.161839 0.000000
v -0.315320 -0.152470 0.000000
v -0.315320 0.152470 0.000000
v -0.385837 -0.041077 0.000000
v -0.385838 0.041077 0.000000
v 0.178046 -0.145180 0.000000
v 0.178046 0.145180 0.000000
v 0.462378 -0.147800 0.000000
v 0.462378 0.147800 0.000000
v 0.747015 -0.097805 0.000000
v 0.747015 0.097804 0.000000
v 1.120031 -0.030206 0.000000
v 1.120031 0.030206 0.000000
v 1.146769 -0.013447 0.000000
v 1.146769 0.013447 0.000000
v -0.391841 -0.013856 0.000000
v -0.391841 0.013856 0.000000
v 0.062005 -0.072041 0.090816
v 0.090816 0.072041 0.090816
v -0.090816 -0.072041 0.090816
v -0.090816 0.072041 0.090816
v -0.172591 -0.123577 0.155783
v -0.172591 0.123576 0.155783
v -0.293101 -0.121758 0.153491
v -0.293101 0.121758 0.153491
v -0.372604 -0.040843 0.051487
v -0.372604 0.040843 0.051487
v 0.189806 -0.113001 0.142451
v 0.189806 0.113001 0.142451
v 0.426105 -0.113001 0.142451
v 0.454916 0.113001 0.142451
v 0.736506 -0.076850 0.096879
v 0.736506 0.076850 0.096879
v 1.114532 -0.025582 0.032249
v 1.114532 0.025581 0.032249
v 0.068069 -0.009899 0.131897
v 0.068069 0.009899 0.131897
v -0.588085 -0.010249 0.162265
v -0.587953 0.013249 0.162183
v -0.575480 0.015615 0.202044
v -0.575638 -0.012478 0.202141
v -0.065051 0.009668 0.122323
v -0.065051 -0.009668 0.122323
v -0.135091 0.046565 0.228910
v -0.135091 -0.046565 0.228910
v -0.392037 -0.033162 0.167977
v -0.392037 0.033161 0.167977
v -0.336289 0.044804 0.209088
v -0.336289 -0.044804 0.209088
v -0.337597 0.091469 0.115307
v -0.337597 -0.091469 0.115307
v -0.390142 0.027737 0.052498
v -0.390142 -0.027737 0.052498
v 0.160052 -0.042963 0.215390
v 0.160052 0.042963 0.215390
v 0.020207 -0.002371 0.549535
v 0.020207 0.002371 0.549535
v 0.475235 -0.043584 0.225471
v 0.475235 0.043584 0.225471
v -0.057514 0.002316 0.546003
v -0.057514 -0.002316 0.546003
v 0.763152 -0.029178 0.145839
v 0.763152 0.029178 0.145839
v -0.152602 -0.008556 0.329673
v -0.152602 0.008556 0.329673
v 1.125593 -0.009044 0.038689
v 1.125593 0.009044 0.038689
v 0.134523 0.008760 0.342721
v 0.134523 -0.008760 0.342721
vt 0.230469 0.777344
vt 0.230469 0.777344
vt 0.230469 0.777344
vt 0.230469 0.777344
vt 0.230469 0.777344
vt 0.230469 0.777344
vt 0.230469 0.777344
vt 0.230469 0.777344
vt 0.064453 0.529297
vt 0.064453 0.529297
vt 0.064453 0.529297
vt 0.064453 0.529297
vt 0.064453 0.529297
vt 0.064453 0.529297
vt 0.064453 0.529297
vt 0.064453 0.529297
vt 0.064453 0.529297
vt 0.064453 0.529297
vt 0.230469 0.777344
vt 0.230469 0.777344
vt 0.230469 0.777344
vt 0.230469 0.777344
vt 0.222656 0.771484
vt 0.222656 0.771484
vt 0.222656 0.771484
vt 0.222656 0.771484
vt 0.230469 0.777344
vt 0.230469 0.777344
vt 0.230469 0.777344
vt 0.230469 0.777344
vt 0.390625 0.714844
vt 0.390625 0.714844
vt 0.390625 0.714844
vt 0.390625 0.714844
vt 0.390625 0.714844
vt 0.390625 0.714844
vt 0.230469 0.777344
vt 0.230469 0.777344
vt 0.230469 0.777344
vt 0.230469 0.777344
vt 0.230469 0.777344
vt 0.230469 0.777344
vt 0.230469 0.777344
vt 0.230469 0.777344
vt 0.230469 0.777344
vt 0.230469 0.777344
vt 0.230469 0.777344
vt 0.230469 0.777344
vt 0.230469 0.777344
vt 0.230469 0.777344
vt 0.230469 0.777344
vt 0.230469 0.777344
vt 0.222656 0.771484
vt 0.222656 0.771484
vt 0.222656 0.771484
vt 0.222656 0.771484
vt 0.408203 0.714844
vt 0.408203 0.714844
vt 0.408203 0.714844
vt 0.408203 0.714844
vt 0.230469 0.777344
vt 0.230469 0.777344
vt 0.408203 0.714844
vt 0.408203 0.714844
vt 0.408203 0.714844
vt 0.408203 0.714844
vt 0.408203 0.714844
vt 0.408203 0.714844
vt 0.222656 0.771484
vt 0.222656 0.771484
vt 0.230469 0.777344
vt 0.230469 0.777344
vt 0.230469 0.777344
vt 0.390625 0.714844
vt 0.390625 0.714844
vt 0.230469 0.777344
vt 0.230469 0.777344
vt 0.230469 0.777344
vt 0.230469 0.777344
vt 0.230469 0.777344
vt 0.230469 0.777344
vt 0.230469 0.777344
vt 0.230469 0.777344
vt 0.230469 0.777344
vt 0.390625 0.714844
vt 0.390625 0.714844
vt 0.390625 0.714844
vt 0.390625 0.714844
vt 0.230469 0.777344
vt 0.230469 0.777344
vt 0.390625 0.714844
vt 0.390625 0.714844
vt 0.390625 0.714844
vt 0.390625 0.714844
vt 0.230469 0.777344
vt 0.230469 0.777344
vt 0.222656 0.771484
vt 0.222656 0.771484
vt 0.230469 0.777344
vt 0.064453 0.529297
vt 0.064453 0.529297
vt 0.408203 0.714844
vt 0.408203 0.714844
vt 0.408203 0.714844
vt 0.230469 0.777344
vt 0.230469 0.777344
vt 0.408203 0.714844
vt 0.230469 0.777344
vt 0.230469 0.777344
vt 0.230469 0.777344
vt 0.230469 0.777344
vt 0.230469 0.777344
vt 0.230469 0.777344
vt 0.230469 0.777344
vt 0.230469 0.777344
vt 0.230469 0.777344
vt 0.230469 0.777344
vt 0.230469 0.777344
vt 0.064453 0.529297
vt 0.064453 0.529297
vt 0.064453 0.529297
vt 0.064453 0.529297
vt 0.064453 0.529297
vt 0.064453 0.529297
vt 0.230469 0.777344
vt 0.230469 0.777344
vt 0.230469 0.777344
vt 0.230469 0.777344
vt 0.222656 0.771484
vt 0.222656 0.771484
vt 0.222656 0.771484
vt 0.222656 0.771484
vt 0.230469 0.777344
vt 0.230469 0.777344
vt 0.230469 0.777344
vt 0.390625 0.714844
vt 0.390625 0.714844
vt 0.390625 0.714844
vt 0.230469 0.777344
vt 0.230469 0.777344
vt 0.230469 0.777344
vt 0.230469 0.777344
vt 0.230469 0.777344
vt 0.230469 0.777344
vt 0.230469 0.777344
vt 0.230469 0.777344
vt 0.230469 0.777344
vt 0.230469 0.777344
vt 0.230469 0.777344
vt 0.230469 0.777344
vt 0.222656 0.771484
vt 0.222656 0.771484
vt 0.222656 0.771484
vt 0.222656 0.771484
vt 0.408203 0.714844
vt 0.408203 0.714844
vt 0.230469 0.777344
vt 0.230469 0.777344
vt 0.408203 0.714844
vt 0.408203 0.714844
vt 0.408203 0.714844
vt 0.408203 0.714844
vt 0.408203 0.714844
vt 0.408203 0.714844
vt 0.222656 0.771484
vt 0.222656 0.771484
vt 0.230469 0.777344
vt 0.230469 0.777344
vt 0.230469 0.777344
vt 0.390625 0.714844
vt 0.230469 0.777344
vt 0.230469 0.777344
vt 0.230469 0.777344
vt 0.230469 0.777344
vt 0.230469 0.777344
vt 0.230469 0.777344
vt 0.230469 0.777344
vt 0.230469 0.777344
vt 0.230469 0.777344
vt 0.390625 0.714844
vt 0.390625 0.714844
vt 0.230469 0.777344
vt 0.230469 0.777344
vt 0.390625 0.714844
vt 0.390625 0.714844
vt 0.230469 0.777344
vt 0.230469 0.777344
vt 0.222656 0.771484
vt 0.222656 0.771484
vt 0.230469 0.777344
vt 0.064453 0.529297
vt 0.064453 0.529297
vn -0.5909 0.6486 -0.4798
vn 0.6722 0.7072 -0.2190
vn -0.0266 0.5030 -0.8639
vn -0.0113 -0.9869 -0.1611
vn -0.0103 0.9866 -0.1628
vn 0.7312 -0.5895 -0.3432
vn -0.7306 -0.6784 0.0772
vn -0.0597 -0.6416 -0.7647
vn -0.0407 0.9751 -0.2182
vn -0.8616 0.5044 -0.0575
vn -0.9053 0.3633 -0.2200
vn -0.4261 -0.8884 -0.1710
vn 0.2019 0.7672 -0.6088
vn -0.0124 0.7458 -0.6661
vn -0.0049 -0.9735 -0.2285
vn -0.9545 0.0064 -0.2983
vn 0.1576 -0.9545 -0.2532
vn -0.5905 0.7192 -0.3661
vn 0.1705 -0.9623 -0.2118
vn -0.4849 -0.0001 0.8745
vn 0.2236 0.7087 -0.6692
vn 0.2236 -0.7087 -0.6692
vn 0.2835 0.0000 -0.9590
vn -0.5905 -0.7192 -0.3661
vn -0.9212 0.0000 0.3890
vn -0.6821 0.6926 -0.2346
vn 0.8752 0.0000 -0.4838
vn -0.1148 -0.9925 0.0411
vn 0.9537 0.0000 0.3006
vn -0.0130 -0.7446 -0.6674
vn -0.0320 0.0000 -0.9995
vn 0.1896 -0.7860 -0.5885
vn 0.2666 -0.0000 -0.9638
vn -0.6821 -0.6926 -0.2346
vn -0.0013 1.0000 -0.0053
vn -0.9155 0.0000 -0.4024
vn -0.8616 -0.5044 -0.0575
vn -0.9995 0.0000 -0.0323
vn -0.0597 0.6416 -0.7647
vn -0.0980 0.0000 -0.9952
vn -0.7306 0.6784 0.0772
vn 0.1828 0.0007 -0.9832
vn 0.7312 0.5895 -0.3432
vn 0.8357 0.0000 -0.5492
vn -0.0021 -0.9996 -0.0297
vn -0.0021 0.9996 -0.0297
vn -0.0294 -0.4978 -0.8668
vn -0.0013 -1.0000 -0.0053
vn -0.5935 0.0000 -0.8048
vn -0.5563 -0.5977 -0.5773
vn -0.6721 -0.0000 -0.7405
vn -0.0454 0.0000 -0.9990
vn 0.8772 0.0000 -0.4801
vn 0.5956 -0.7377 -0.3179
vn -0.0998 0.9941 0.0431
vn 0.5956 0.7377 -0.3179
vn 0.1647 0.9578 -0.2355
vn 0.1705 0.9623 -0.2118
vn -0.0046 0.9734 -0.2289
vn -0.4820 0.8481 -0.2200
vn -0.9053 -0.3633 -0.2200
vn -0.0407 -0.9751 -0.2182
vn 0.6722 -0.7072 -0.2190
vn -0.5909 0.6486 0.4798
vn 0.6722 0.7072 0.2190
vn -0.0266 0.5030 0.8639
vn -0.0113 -0.9869 0.1611
vn -0.0103 0.9866 0.1628
vn 0.7312 -0.5895 0.3432
vn -0.7306 -0.6784 -0.0772
vn -0.0597 -0.6416 0.7647
vn -0.0407 0.9751 0.2182
vn -0.8616 0.5044 0.0575
vn -0.9053 0.3633 0.2200
vn -0.4261 -0.8884 0.1710
vn 0.2019 0.7672 0.6088
vn -0.0124 0.7458 0.6661
vn -0.0049 -0.9735 0.2285
vn -0.9545 0.0064 0.2983
vn 0.1576 -0.9545 0.2532
vn -0.5905 0.7192 0.3661
vn 0.1705 -0.9623 0.2118
vn -0.4849 -0.0001 -0.8745
vn 0.2236 0.7087 0.6692
vn 0.2236 -0.7087 0.6692
vn 0.2835 0.0000 0.9590
vn -0.5905 -0.7192 0.3661
vn -0.9212 0.0000 -0.3890
vn -0.6821 0.6926 0.2346
vn 0.8752 0.0000 0.4838
vn -0.1148 -0.9925 -0.0411
vn 0.9537 0.0000 -0.3006
vn -0.0130 -0.7446 0.6674
vn -0.0320 0.0000 0.9995
vn 0.1896 -0.7860 0.5885
vn 0.2666 -0.0000 0.9638
vn -0.6821 -0.6926 0.2346
vn -0.0013 1.0000 0.0053
vn -0.9155 0.0000 0.4024
vn -0.8616 -0.5044 0.0575
vn -0.9995 0.0000 0.0323
vn -0.0597 0.6416 0.7647
vn -0.0980 0.0000 0.9952
vn -0.7306 0.6784 -0.0772
vn 0.1828 0.0007 0.9832
vn 0.7312 0.5895 0.3432
vn 0.8357 0.0000 0.5492
vn -0.0021 -0.9996 0.0297
vn -0.0021 0.9996 0.0297
vn -0.0294 -0.4978 0.8668
vn -0.0013 -1.0000 0.0053
vn -0.5935 0.0000 0.8048
vn -0.5563 -0.5977 0.5773
vn -0.6721 -0.0000 0.7405
vn -0.0454 0.0000 0.9990
vn 0.8772 0.0000 0.4801
vn 0.5956 -0.7377 0.3179
vn -0.0998 0.9941 -0.0431
vn 0.5956 0.7377 0.3179
vn 0.1647 0.9578 0.2355
vn 0.1705 0.9623 0.2118
vn -0.0046 0.9734 0.2289
vn -0.4820 0.8481 0.2200
vn -0.9053 -0.3633 0.2200
vn -0.0407 -0.9751 0.2182
vn 0.6722 -0.7072 0.2190
usemtl palette
s off
f 20/1/1 2/2/1 12/3/1 40/4/1
f 58/5/2 4/6/2 6/7/2 60/8/2
f 25/9/3 4/10/3 2/11/3 20/12/3
f 55/13/4 57/14/4 3/15/4 1/16/4
f 58/17/5 56/18/5 2/11/5 4/10/5
f 26/19/6 3/20/6 5/21/6 30/22/6
f 31/23/7 36/24/7 9/25/7 38/26/7
f 30/22/8 5/21/8 7/27/8 34/28/8
f 60/8/9 6/7/9 8/29/9 62/30/9
f 76/31/10 64/32/10 10/33/10 37/34/10
f 28/35/11 35/36/11 10/33/11 64/32/11
f 55/37/12 1/38/12 11/39/12 65/40/12
f 44/41/13 14/42/13 16/43/13 48/44/13
f 40/4/14 12/3/14 14/42/14 44/41/14
f 65/40/15 11/39/15 13/45/15 67/46/15
f 23/47/16 24/48/16 21/49/16 22/50/16
f 67/46/17 13/45/17 15/51/17 69/52/17
f 8/53/18 33/54/18 32/55/18 35/56/18
f 69/57/19 15/58/19 17/59/19 71/60/19
f 38/61/20 37/62/20 22/50/20 21/49/20
f 48/63/21 16/64/21 18/65/21 52/66/21
f 15/58/22 47/67/22 51/68/22 17/59/22
f 47/67/23 48/63/23 52/66/23 51/68/23
f 34/69/24 7/70/24 36/24/24 31/23/24
f 26/19/25 25/71/25 50/72/25 49/73/25
f 62/74/26 8/75/26 35/36/26 28/35/26
f 53/76/27 54/77/27 41/78/27 42/79/27
f 31/80/28 38/61/28 21/49/28 24/48/28
f 20/1/29 19/81/29 54/77/29 53/76/29
f 11/39/30 39/82/30 43/83/30 13/45/30
f 39/82/31 40/4/31 44/41/31 43/83/31
f 13/45/32 43/83/32 47/84/32 15/51/32
f 43/83/33 44/41/33 48/44/33 47/84/33
f 7/85/34 61/86/34 27/87/34 36/88/34
f 25/71/35 20/1/35 53/76/35 50/72/35
f 49/73/36 50/72/36 45/89/36 46/90/36
f 63/91/37 75/92/37 38/93/37 9/94/37
f 75/92/38 76/31/38 37/34/38 38/93/38
f 6/7/39 29/95/39 33/96/39 8/29/39
f 29/95/40 30/22/40 34/28/40 33/96/40
f 35/56/41 32/55/41 37/97/41 10/98/41
f 32/99/42 31/80/42 24/48/42 23/47/42
f 4/6/43 25/71/43 29/95/43 6/7/43
f 25/71/44 26/19/44 30/22/44 29/95/44
f 54/77/45 49/73/45 46/90/45 41/78/45
f 50/72/46 53/76/46 42/79/46 45/89/46
f 3/15/47 26/100/47 19/101/47 1/16/47
f 19/81/48 26/19/48 49/73/48 54/77/48
f 33/54/49 34/69/49 31/23/49 32/55/49
f 1/38/50 19/81/50 39/82/50 11/39/50
f 19/81/51 20/1/51 40/4/51 39/82/51
f 46/90/52 45/89/52 42/79/52 41/78/52
f 51/68/53 52/66/53 74/102/53 73/103/53
f 17/59/54 51/68/54 73/103/54 71/60/54
f 37/62/55 32/99/55 23/47/55 22/50/55
f 52/66/56 18/65/56 72/104/56 74/102/56
f 14/42/57 68/105/57 70/106/57 16/43/57
f 16/64/58 70/107/58 72/104/58 18/65/58
f 12/3/59 66/108/59 68/105/59 14/42/59
f 2/2/60 56/109/60 66/108/60 12/3/60
f 36/88/61 27/87/61 63/91/61 9/94/61
f 5/21/62 59/110/62 61/111/62 7/27/62
f 3/20/63 57/112/63 59/110/63 5/21/63
f 96/113/64 114/114/64 88/115/64 78/116/64
f 58/5/65 60/8/65 82/117/65 80/118/65
f 101/119/66 96/120/66 78/121/66 80/122/66
f 55/13/67 77/123/67 79/124/67 57/14/67
f 58/17/68 80/122/68 78/121/68 56/18/68
f 102/125/69 104/126/69 81/127/69 79/128/69
f 105/129/70 112/130/70 85/131/70 110/132/70
f 104/126/71 108/133/71 83/134/71 81/127/71
f 60/8/72 62/30/72 84/135/72 82/117/72
f 76/31/73 111/136/73 86/137/73 64/32/73
f 28/35/74 64/32/74 86/137/74 109/138/74
f 55/37/75 65/40/75 87/139/75 77/140/75
f 118/141/76 122/142/76 92/143/76 90/144/76
f 114/114/77 118/141/77 90/144/77 88/115/77
f 65/40/78 67/46/78 89/145/78 87/139/78
f 99/146/79 98/147/79 97/148/79 100/149/79
f 67/46/80 69/52/80 91/150/80 89/145/80
f 84/151/81 109/152/81 106/153/81 107/154/81
f 69/57/82 71/60/82 93/155/82 91/156/82
f 112/157/83 97/148/83 98/147/83 111/158/83
f 122/159/84 126/160/84 94/161/84 92/162/84
f 91/156/85 93/155/85 125/163/85 121/164/85
f 121/164/86 125/163/86 126/160/86 122/159/86
f 108/165/87 105/129/87 110/132/87 83/166/87
f 102/125/88 123/167/88 124/168/88 101/169/88
f 62/74/89 28/35/89 109/138/89 84/170/89
f 127/171/90 116/172/90 115/173/90 128/174/90
f 105/175/91 100/149/91 97/148/91 112/157/91
f 96/113/92 127/171/92 128/174/92 95/176/92
f 87/139/93 89/145/93 117/177/93 113/178/93
f 113/178/94 117/177/94 118/141/94 114/114/94
f 89/145/95 91/150/95 121/179/95 117/177/95
f 117/177/96 121/179/96 122/142/96 118/141/96
f 83/180/97 110/181/97 27/87/97 61/86/97
f 101/169/98 124/168/98 127/171/98 96/113/98
f 123/167/99 120/182/99 119/183/99 124/168/99
f 63/91/100 85/184/100 112/185/100 75/92/100
f 75/92/101 112/185/101 111/136/101 76/31/101
f 82/117/102 84/135/102 107/186/102 103/187/102
f 103/187/103 107/186/103 108/133/103 104/126/103
f 109/152/104 86/188/104 111/189/104 106/153/104
f 106/190/105 99/146/105 100/149/105 105/175/105
f 80/118/106 82/117/106 103/187/106 101/169/106
f 101/169/107 103/187/107 104/126/107 102/125/107
f 128/174/108 115/173/108 120/182/108 123/167/108
f 124/168/109 119/183/109 116/172/109 127/171/109
f 79/124/110 77/123/110 95/191/110 102/192/110
f 95/176/111 128/174/111 123/167/111 102/125/111
f 107/154/112 106/153/112 105/129/112 108/165/112
f 77/140/113 87/139/113 113/178/113 95/176/113
f 95/176/114 113/178/114 114/114/114 96/113/114
f 120/182/115 115/173/115 116/172/115 119/183/115
f 125/163/116 73/103/116 74/102/116 126/160/116
f 93/155/117 71/60/117 73/103/117 125/163/117
f 111/158/118 98/147/118 99/146/118 106/190/118
f 126/160/119 74/102/119 72/104/119 94/161/119
f 90/144/120 92/143/120 70/106/120 68/105/120
f 92/162/121 94/161/121 72/104/121 70/107/121
f 88/115/122 90/144/122 68/105/122 66/108/122
f 78/116/123 88/115/123 66/108/123 56/109/123
f 110/181/124 85/184/124 63/91/124 27/87/124
f 81/127/125 83/134/125 61/111/125 59/110/125
f 79/128/126 81/127/126 59/110/126 57/112/126
